{
    "sourceFile": "lib/utils/constant.dart",
    "activeCommit": 0,
    "commits": [
        {
            "activePatchIndex": 1,
            "patches": [
                {
                    "date": 1650621277328,
                    "content": "Index: \n===================================================================\n--- \n+++ \n"
                },
                {
                    "date": 1650621305118,
                    "content": "Index: \n===================================================================\n--- \n+++ \n@@ -8,9 +8,11 @@\n   static const REGISTER = \"/register\";\n }\n \n class Font {\n-  static const H1 = 21;\n+  static const H1 = 16;\n+  static const H2 = 14;\n+  static const H3 = 12;\n }\n \n class ScreenUtilConstants {\n   static const width = 320.0;\n"
                }
            ],
            "date": 1650621277328,
            "name": "Commit-0",
            "content": "class Preference {\n  static const USER_INFO = \"user-info\";\n}\n\nclass Api {\n  static const BASE_URL = \"\";\n  static const LOGIN = \"/login\";\n  static const REGISTER = \"/register\";\n}\n\nclass Font {\n  static const H1 = 21;\n}\n\nclass ScreenUtilConstants {\n  static const width = 320.0;\n  static const height = 640.0;\n}\n"
        }
    ]
}