{
    "sourceFile": "lib/services/api_service.dart",
    "activeCommit": 0,
    "commits": [
        {
            "activePatchIndex": 32,
            "patches": [
                {
                    "date": 1650572747553,
                    "content": "Index: \n===================================================================\n--- \n+++ \n"
                },
                {
                    "date": 1650573150461,
                    "content": "Index: \n===================================================================\n--- \n+++ \n@@ -9,8 +9,8 @@\n \n       return MovieModel();\n     } catch (e) {\n       print(e.toString());\n-      return null;\n+      return MovieModel();\n     }\n   }\n }\n"
                },
                {
                    "date": 1650573223034,
                    "content": "Index: \n===================================================================\n--- \n+++ \n@@ -5,10 +5,13 @@\n class ApiServices {\n   Future<MovieModel> getMovieList() async {\n     try {\n       var dio = await dioConfig.dio();\n+      final response = await dio.get(\n+          'https://api.themoviedb.org/3/trending/all/day?api_key=0bc9e6490f0a9aa230bd01e268411e10');\n+      print(\"response ${response.data}\");\n \n-      return MovieModel();\n+      return response.data;\n     } catch (e) {\n       print(e.toString());\n       return MovieModel();\n     }\n"
                },
                {
                    "date": 1650573389927,
                    "content": "Index: \n===================================================================\n--- \n+++ \n@@ -2,18 +2,20 @@\n \n import 'package:majootestcase/services/dio_config_service.dart' as dioConfig;\n \n class ApiServices {\n-  Future<MovieModel> getMovieList() async {\n+  Future<List<MovieModel>> getMovieList() async {\n     try {\n       var dio = await dioConfig.dio();\n       final response = await dio.get(\n           'https://api.themoviedb.org/3/trending/all/day?api_key=0bc9e6490f0a9aa230bd01e268411e10');\n-      print(\"response ${response.data}\");\n-\n-      return response.data;\n+      final data = response.data;\n+      final result =\n+          (data as Iterable).map((e) => MovieModel.fromJson(e)).toList();\n+      print(result);\n+      return result;\n     } catch (e) {\n       print(e.toString());\n-      return MovieModel();\n+      return [];\n     }\n   }\n }\n"
                },
                {
                    "date": 1650573568368,
                    "content": "Index: \n===================================================================\n--- \n+++ \n@@ -2,20 +2,20 @@\n \n import 'package:majootestcase/services/dio_config_service.dart' as dioConfig;\n \n class ApiServices {\n-  Future<List<MovieModel>> getMovieList() async {\n+  Future<MovieModel> getMovieList() async {\n     try {\n       var dio = await dioConfig.dio();\n       final response = await dio.get(\n           'https://api.themoviedb.org/3/trending/all/day?api_key=0bc9e6490f0a9aa230bd01e268411e10');\n       final data = response.data;\n-      final result =\n-          (data as Iterable).map((e) => MovieModel.fromJson(e)).toList();\n+      final result = MovieModel.fromJson(data);\n       print(result);\n+\n       return result;\n     } catch (e) {\n       print(e.toString());\n-      return [];\n+      return MovieModel();\n     }\n   }\n }\n"
                },
                {
                    "date": 1650573840172,
                    "content": "Index: \n===================================================================\n--- \n+++ \n@@ -5,10 +5,12 @@\n class ApiServices {\n   Future<MovieModel> getMovieList() async {\n     try {\n       var dio = await dioConfig.dio();\n-      final response = await dio.get(\n-          'https://api.themoviedb.org/3/trending/all/day?api_key=0bc9e6490f0a9aa230bd01e268411e10');\n+      final response = await dio\n+          .get('3/trending/all/day?api_key=0bc9e6490f0a9aa230bd01e268411e10');\n+      // await dio.get(\n+      //     'https://api.themoviedb.org/3/trending/all/day?api_key=0bc9e6490f0a9aa230bd01e268411e10');\n       final data = response.data;\n       final result = MovieModel.fromJson(data);\n       print(result);\n \n"
                },
                {
                    "date": 1650573883692,
                    "content": "Index: \n===================================================================\n--- \n+++ \n@@ -10,8 +10,9 @@\n           .get('3/trending/all/day?api_key=0bc9e6490f0a9aa230bd01e268411e10');\n       // await dio.get(\n       //     'https://api.themoviedb.org/3/trending/all/day?api_key=0bc9e6490f0a9aa230bd01e268411e10');\n       final data = response.data;\n+      print(\"dataaaaa ${data}\");\n       final result = MovieModel.fromJson(data);\n       print(result);\n \n       return result;\n"
                },
                {
                    "date": 1650573923768,
                    "content": "Index: \n===================================================================\n--- \n+++ \n@@ -12,9 +12,9 @@\n       //     'https://api.themoviedb.org/3/trending/all/day?api_key=0bc9e6490f0a9aa230bd01e268411e10');\n       final data = response.data;\n       print(\"dataaaaa ${data}\");\n       final result = MovieModel.fromJson(data);\n-      print(result);\n+      print(\"result ${result}\");\n \n       return result;\n     } catch (e) {\n       print(e.toString());\n"
                },
                {
                    "date": 1650573977236,
                    "content": "Index: \n===================================================================\n--- \n+++ \n@@ -11,12 +11,16 @@\n       // await dio.get(\n       //     'https://api.themoviedb.org/3/trending/all/day?api_key=0bc9e6490f0a9aa230bd01e268411e10');\n       final data = response.data;\n       print(\"dataaaaa ${data}\");\n-      final result = MovieModel.fromJson(data);\n-      print(\"result ${result}\");\n+      try {\n+        final result = MovieModel.fromJson(data);\n+      } catch (e) {\n+        print(e);\n+      }\n+      // print(\"result ${result}\");\n \n-      return result;\n+      return data;\n     } catch (e) {\n       print(e.toString());\n       return MovieModel();\n     }\n"
                },
                {
                    "date": 1650574009972,
                    "content": "Index: \n===================================================================\n--- \n+++ \n@@ -1,4 +1,6 @@\n+import 'dart:convert';\n+\n import 'package:majootestcase/models/movie_model.dart';\n \n import 'package:majootestcase/services/dio_config_service.dart' as dioConfig;\n \n@@ -12,9 +14,9 @@\n       //     'https://api.themoviedb.org/3/trending/all/day?api_key=0bc9e6490f0a9aa230bd01e268411e10');\n       final data = response.data;\n       print(\"dataaaaa ${data}\");\n       try {\n-        final result = MovieModel.fromJson(data);\n+        final result = MovieModel.fromJson(jsonDecode(data));\n       } catch (e) {\n         print(e);\n       }\n       // print(\"result ${result}\");\n"
                },
                {
                    "date": 1650574052686,
                    "content": "Index: \n===================================================================\n--- \n+++ \n@@ -14,9 +14,9 @@\n       //     'https://api.themoviedb.org/3/trending/all/day?api_key=0bc9e6490f0a9aa230bd01e268411e10');\n       final data = response.data;\n       print(\"dataaaaa ${data}\");\n       try {\n-        final result = MovieModel.fromJson(jsonDecode(data));\n+        final result = MovieModel.fromJson(jsonDecode(data.toString()));\n       } catch (e) {\n         print(e);\n       }\n       // print(\"result ${result}\");\n"
                },
                {
                    "date": 1650574081806,
                    "content": "Index: \n===================================================================\n--- \n+++ \n@@ -13,16 +13,16 @@\n       // await dio.get(\n       //     'https://api.themoviedb.org/3/trending/all/day?api_key=0bc9e6490f0a9aa230bd01e268411e10');\n       final data = response.data;\n       print(\"dataaaaa ${data}\");\n-      try {\n-        final result = MovieModel.fromJson(jsonDecode(data.toString()));\n-      } catch (e) {\n-        print(e);\n-      }\n+      // try {\n+      final result = MovieModel.fromJson(jsonDecode(data.toString()));\n+      // } catch (e) {\n+      //   print(e);\n+      // }\n       // print(\"result ${result}\");\n \n-      return data;\n+      return result;\n     } catch (e) {\n       print(e.toString());\n       return MovieModel();\n     }\n"
                },
                {
                    "date": 1650574169017,
                    "content": "Index: \n===================================================================\n--- \n+++ \n@@ -14,9 +14,9 @@\n       //     'https://api.themoviedb.org/3/trending/all/day?api_key=0bc9e6490f0a9aa230bd01e268411e10');\n       final data = response.data;\n       print(\"dataaaaa ${data}\");\n       // try {\n-      final result = MovieModel.fromJson(jsonDecode(data.toString()));\n+      final result = MovieModel.fromJson(jsonDecode(data));\n       // } catch (e) {\n       //   print(e);\n       // }\n       // print(\"result ${result}\");\n"
                },
                {
                    "date": 1650574255425,
                    "content": "Index: \n===================================================================\n--- \n+++ \n@@ -14,9 +14,9 @@\n       //     'https://api.themoviedb.org/3/trending/all/day?api_key=0bc9e6490f0a9aa230bd01e268411e10');\n       final data = response.data;\n       print(\"dataaaaa ${data}\");\n       // try {\n-      final result = MovieModel.fromJson(jsonDecode(data));\n+      final result = MovieModel.fromJson(json.decode(data));\n       // } catch (e) {\n       //   print(e);\n       // }\n       // print(\"result ${result}\");\n"
                },
                {
                    "date": 1650574290376,
                    "content": "Index: \n===================================================================\n--- \n+++ \n@@ -14,9 +14,9 @@\n       //     'https://api.themoviedb.org/3/trending/all/day?api_key=0bc9e6490f0a9aa230bd01e268411e10');\n       final data = response.data;\n       print(\"dataaaaa ${data}\");\n       // try {\n-      final result = MovieModel.fromJson(json.decode(data));\n+      final result = MovieModel.fromJson(json.decode(json.encode(data)));\n       // } catch (e) {\n       //   print(e);\n       // }\n       // print(\"result ${result}\");\n"
                },
                {
                    "date": 1650574370295,
                    "content": "Index: \n===================================================================\n--- \n+++ \n@@ -13,14 +13,15 @@\n       // await dio.get(\n       //     'https://api.themoviedb.org/3/trending/all/day?api_key=0bc9e6490f0a9aa230bd01e268411e10');\n       final data = response.data;\n       print(\"dataaaaa ${data}\");\n-      // try {\n-      final result = MovieModel.fromJson(json.decode(json.encode(data)));\n-      // } catch (e) {\n-      //   print(e);\n-      // }\n-      // print(\"result ${result}\");\n+      MovieModel result = MovieModel();\n+      try {\n+        result = MovieModel.fromJson(json.decode(json.encode(data)));\n+      } catch (e) {\n+        print(e);\n+      }\n+      print(\"result ${result}\");\n \n       return result;\n     } catch (e) {\n       print(e.toString());\n"
                },
                {
                    "date": 1650574425748,
                    "content": "Index: \n===================================================================\n--- \n+++ \n@@ -15,9 +15,9 @@\n       final data = response.data;\n       print(\"dataaaaa ${data}\");\n       MovieModel result = MovieModel();\n       try {\n-        result = MovieModel.fromJson(json.decode(json.encode(data)));\n+        result = MovieModel.fromJson(data);\n       } catch (e) {\n         print(e);\n       }\n       print(\"result ${result}\");\n"
                },
                {
                    "date": 1650574468252,
                    "content": "Index: \n===================================================================\n--- \n+++ \n@@ -19,9 +19,9 @@\n         result = MovieModel.fromJson(data);\n       } catch (e) {\n         print(e);\n       }\n-      print(\"result ${result}\");\n+      print(\"result ${result.results}\");\n \n       return result;\n     } catch (e) {\n       print(e.toString());\n"
                },
                {
                    "date": 1650574489560,
                    "content": "Index: \n===================================================================\n--- \n+++ \n@@ -19,9 +19,9 @@\n         result = MovieModel.fromJson(data);\n       } catch (e) {\n         print(e);\n       }\n-      print(\"result ${result.results}\");\n+      print(\"result ${result.page}\");\n \n       return result;\n     } catch (e) {\n       print(e.toString());\n"
                },
                {
                    "date": 1650574612254,
                    "content": "Index: \n===================================================================\n--- \n+++ \n@@ -11,9 +11,9 @@\n       final response = await dio\n           .get('3/trending/all/day?api_key=0bc9e6490f0a9aa230bd01e268411e10');\n       // await dio.get(\n       //     'https://api.themoviedb.org/3/trending/all/day?api_key=0bc9e6490f0a9aa230bd01e268411e10');\n-      final data = response.data;\n+      Map<String, dynamic> data = response.data;\n       print(\"dataaaaa ${data}\");\n       MovieModel result = MovieModel();\n       try {\n         result = MovieModel.fromJson(data);\n"
                },
                {
                    "date": 1650574633979,
                    "content": "Index: \n===================================================================\n--- \n+++ \n@@ -11,9 +11,9 @@\n       final response = await dio\n           .get('3/trending/all/day?api_key=0bc9e6490f0a9aa230bd01e268411e10');\n       // await dio.get(\n       //     'https://api.themoviedb.org/3/trending/all/day?api_key=0bc9e6490f0a9aa230bd01e268411e10');\n-      Map<String, dynamic> data = response.data;\n+      Map<String, dynamic> data = json.decode(response.data);\n       print(\"dataaaaa ${data}\");\n       MovieModel result = MovieModel();\n       try {\n         result = MovieModel.fromJson(data);\n"
                },
                {
                    "date": 1650574689256,
                    "content": "Index: \n===================================================================\n--- \n+++ \n@@ -11,13 +11,13 @@\n       final response = await dio\n           .get('3/trending/all/day?api_key=0bc9e6490f0a9aa230bd01e268411e10');\n       // await dio.get(\n       //     'https://api.themoviedb.org/3/trending/all/day?api_key=0bc9e6490f0a9aa230bd01e268411e10');\n-      Map<String, dynamic> data = json.decode(response.data);\n+      var data = response.data;\n       print(\"dataaaaa ${data}\");\n       MovieModel result = MovieModel();\n       try {\n-        result = MovieModel.fromJson(data);\n+        result = MovieModel.fromJson(data as Map<String, dynamic>);\n       } catch (e) {\n         print(e);\n       }\n       print(\"result ${result.page}\");\n"
                },
                {
                    "date": 1650574723458,
                    "content": "Index: \n===================================================================\n--- \n+++ \n@@ -14,13 +14,13 @@\n       //     'https://api.themoviedb.org/3/trending/all/day?api_key=0bc9e6490f0a9aa230bd01e268411e10');\n       var data = response.data;\n       print(\"dataaaaa ${data}\");\n       MovieModel result = MovieModel();\n-      try {\n-        result = MovieModel.fromJson(data as Map<String, dynamic>);\n-      } catch (e) {\n-        print(e);\n-      }\n+      // try {\n+      result = MovieModel.fromJson(data as Map<String, dynamic>);\n+      // } catch (e) {\n+      //   print(e);\n+      // }\n       print(\"result ${result.page}\");\n \n       return result;\n     } catch (e) {\n"
                },
                {
                    "date": 1650574755311,
                    "content": "Index: \n===================================================================\n--- \n+++ \n@@ -19,9 +19,9 @@\n       result = MovieModel.fromJson(data as Map<String, dynamic>);\n       // } catch (e) {\n       //   print(e);\n       // }\n-      print(\"result ${result.page}\");\n+      print(\"resulttt ${result.page}\");\n \n       return result;\n     } catch (e) {\n       print(e.toString());\n"
                },
                {
                    "date": 1650574777914,
                    "content": "Index: \n===================================================================\n--- \n+++ \n@@ -15,9 +15,9 @@\n       var data = response.data;\n       print(\"dataaaaa ${data}\");\n       MovieModel result = MovieModel();\n       // try {\n-      result = MovieModel.fromJson(data as Map<String, dynamic>);\n+      result = MovieModel.fromJson(json.decode(data) as Map<String, dynamic>);\n       // } catch (e) {\n       //   print(e);\n       // }\n       print(\"resulttt ${result.page}\");\n"
                },
                {
                    "date": 1650574817434,
                    "content": "Index: \n===================================================================\n--- \n+++ \n@@ -12,9 +12,9 @@\n           .get('3/trending/all/day?api_key=0bc9e6490f0a9aa230bd01e268411e10');\n       // await dio.get(\n       //     'https://api.themoviedb.org/3/trending/all/day?api_key=0bc9e6490f0a9aa230bd01e268411e10');\n       var data = response.data;\n-      print(\"dataaaaa ${data}\");\n+      print(\"dataaaaa ${data['total_pages']}\");\n       MovieModel result = MovieModel();\n       // try {\n       result = MovieModel.fromJson(json.decode(data) as Map<String, dynamic>);\n       // } catch (e) {\n"
                },
                {
                    "date": 1650574885110,
                    "content": "Index: \n===================================================================\n--- \n+++ \n@@ -15,9 +15,9 @@\n       var data = response.data;\n       print(\"dataaaaa ${data['total_pages']}\");\n       MovieModel result = MovieModel();\n       // try {\n-      result = MovieModel.fromJson(json.decode(data) as Map<String, dynamic>);\n+      result = MovieModel.fromJson(data);\n       // } catch (e) {\n       //   print(e);\n       // }\n       print(\"resulttt ${result.page}\");\n"
                },
                {
                    "date": 1650577189693,
                    "content": "Index: \n===================================================================\n--- \n+++ \n@@ -14,13 +14,13 @@\n       //     'https://api.themoviedb.org/3/trending/all/day?api_key=0bc9e6490f0a9aa230bd01e268411e10');\n       var data = response.data;\n       print(\"dataaaaa ${data['total_pages']}\");\n       MovieModel result = MovieModel();\n-      // try {\n-      result = MovieModel.fromJson(data);\n-      // } catch (e) {\n-      //   print(e);\n-      // }\n+      try {\n+        result = MovieModel.fromJson(data);\n+      } catch (e) {\n+        print(e);\n+      }\n       print(\"resulttt ${result.page}\");\n \n       return result;\n     } catch (e) {\n"
                },
                {
                    "date": 1650577313163,
                    "content": "Index: \n===================================================================\n--- \n+++ \n@@ -13,14 +13,14 @@\n       // await dio.get(\n       //     'https://api.themoviedb.org/3/trending/all/day?api_key=0bc9e6490f0a9aa230bd01e268411e10');\n       var data = response.data;\n       print(\"dataaaaa ${data['total_pages']}\");\n-      MovieModel result = MovieModel();\n-      try {\n-        result = MovieModel.fromJson(data);\n-      } catch (e) {\n-        print(e);\n-      }\n+      // MovieModel result = MovieModel();\n+      // try {\n+      final result = MovieModel.fromJson(data);\n+      // } catch (e) {\n+      //   print(e);\n+      // }\n       print(\"resulttt ${result.page}\");\n \n       return result;\n     } catch (e) {\n"
                },
                {
                    "date": 1650577806924,
                    "content": "Index: \n===================================================================\n--- \n+++ \n@@ -15,9 +15,9 @@\n       var data = response.data;\n       print(\"dataaaaa ${data['total_pages']}\");\n       // MovieModel result = MovieModel();\n       // try {\n-      final result = MovieModel.fromJson(data);\n+      final result = MovieModel.fromJson(json.decode(data));\n       // } catch (e) {\n       //   print(e);\n       // }\n       print(\"resulttt ${result.page}\");\n"
                },
                {
                    "date": 1650577900350,
                    "content": "Index: \n===================================================================\n--- \n+++ \n@@ -15,9 +15,9 @@\n       var data = response.data;\n       print(\"dataaaaa ${data['total_pages']}\");\n       // MovieModel result = MovieModel();\n       // try {\n-      final result = MovieModel.fromJson(json.decode(data));\n+      final result = MovieModel.fromJson(data);\n       // } catch (e) {\n       //   print(e);\n       // }\n       print(\"resulttt ${result.page}\");\n"
                },
                {
                    "date": 1650578964794,
                    "content": "Index: \n===================================================================\n--- \n+++ \n@@ -9,20 +9,9 @@\n     try {\n       var dio = await dioConfig.dio();\n       final response = await dio\n           .get('3/trending/all/day?api_key=0bc9e6490f0a9aa230bd01e268411e10');\n-      // await dio.get(\n-      //     'https://api.themoviedb.org/3/trending/all/day?api_key=0bc9e6490f0a9aa230bd01e268411e10');\n-      var data = response.data;\n-      print(\"dataaaaa ${data['total_pages']}\");\n-      // MovieModel result = MovieModel();\n-      // try {\n-      final result = MovieModel.fromJson(data);\n-      // } catch (e) {\n-      //   print(e);\n-      // }\n-      print(\"resulttt ${result.page}\");\n-\n+      final result = MovieModel.fromJson(response.data);\n       return result;\n     } catch (e) {\n       print(e.toString());\n       return MovieModel();\n"
                },
                {
                    "date": 1650621418390,
                    "content": "Index: \n===================================================================\n--- \n+++ \n@@ -1,6 +1,4 @@\n-import 'dart:convert';\n-\n import 'package:majootestcase/models/movie_model.dart';\n \n import 'package:majootestcase/services/dio_config_service.dart' as dioConfig;\n \n"
                }
            ],
            "date": 1650572747553,
            "name": "Commit-0",
            "content": "import 'package:majootestcase/models/movie_model.dart';\n\nimport 'package:majootestcase/services/dio_config_service.dart' as dioConfig;\n\nclass ApiServices {\n  Future<MovieModel> getMovieList() async {\n    try {\n      var dio = await dioConfig.dio();\n\n      return MovieModel();\n    } catch (e) {\n      print(e.toString());\n      return null;\n    }\n  }\n}\n"
        }
    ]
}