{
    "sourceFile": "lib/services/dio_config_service.dart",
    "activeCommit": 0,
    "commits": [
        {
            "activePatchIndex": 1,
            "patches": [
                {
                    "date": 1650573840157,
                    "content": "Index: \n===================================================================\n--- \n+++ \n"
                },
                {
                    "date": 1650576588949,
                    "content": "Index: \n===================================================================\n--- \n+++ \n@@ -1,9 +1,9 @@\n import 'dart:async';\n import 'package:dio/dio.dart';\n import 'package:pretty_dio_logger/pretty_dio_logger.dart';\n \n-Dio dioInstance;\n+late Dio dioInstance;\n createInstance() async {\n   var option = BaseOptions(\n       baseUrl: \"https://api.themoviedb.org/\",\n       connectTimeout: 10000,\n"
                }
            ],
            "date": 1650573840157,
            "name": "Commit-0",
            "content": "import 'dart:async';\nimport 'package:dio/dio.dart';\nimport 'package:pretty_dio_logger/pretty_dio_logger.dart';\n\nDio dioInstance;\ncreateInstance() async {\n  var option = BaseOptions(\n      baseUrl: \"https://api.themoviedb.org/\",\n      connectTimeout: 10000,\n      receiveTimeout: 10000);\n\n  dioInstance = new Dio(option);\n  dioInstance.interceptors.add(PrettyDioLogger(\n      requestHeader: true,\n      requestBody: true,\n      responseBody: true,\n      responseHeader: false,\n      error: true,\n      compact: true,\n      maxWidth: 90));\n}\n\nFuture<Dio> dio() async {\n  await createInstance();\n  // dioInstance.options.baseUrl = \"https://api.themoviedb.org/3/trending/all/day?api_key=0bc9e6490f0a9aa230bd01e268411e10\";\n  return dioInstance;\n}\n"
        }
    ]
}