{
    "sourceFile": "lib/main.dart",
    "activeCommit": 0,
    "commits": [
        {
            "activePatchIndex": 35,
            "patches": [
                {
                    "date": 1650576588803,
                    "content": "Index: \n===================================================================\n--- \n+++ \n"
                },
                {
                    "date": 1650578959598,
                    "content": "Index: \n===================================================================\n--- \n+++ \n@@ -21,9 +21,9 @@\n         primarySwatch: Colors.blue,\n         visualDensity: VisualDensity.adaptivePlatformDensity,\n       ),\n       home: BlocProvider(\n-        create: (context) => AuthBlocCubit()..fetch_history_login(),\n+        create: (context) => AuthBlocCubit()..fetchHistoryLogin(),\n         child: MyHomePageScreen(),\n       ),\n     );\n   }\n"
                },
                {
                    "date": 1650580418458,
                    "content": "Index: \n===================================================================\n--- \n+++ \n@@ -35,9 +35,12 @@\n   @override\n   Widget build(BuildContext context) {\n     return BlocBuilder<AuthBlocCubit, AuthBlocState>(builder: (context, state) {\n       if (state is AuthBlocLoginState) {\n-        return LoginPage();\n+        return BlocProvider(\n+          create: (context) => AuthBlocCubit(),\n+          child: LoginPage(),\n+        );\n       } else if (state is AuthBlocLoggedInState) {\n         return BlocProvider(\n           create: (context) => HomeBlocCubit()..fetching_data(),\n           child: HomeBlocScreen(),\n"
                },
                {
                    "date": 1650585837218,
                    "content": "Index: \n===================================================================\n--- \n+++ \n@@ -28,12 +28,20 @@\n     );\n   }\n }\n \n-class MyHomePageScreen extends StatelessWidget {\n-  const MyHomePageScreen({Key? key}) : super(key: key);\n+class MyHomePageScreen extends StatefulWidget {\n+  MyHomePageScreen({Key? key}) : super(key: key);\n \n   @override\n+  State<MyHomePageScreen> createState() => _MyHomePageScreenState();\n+}\n+\n+class _MyHomePageScreenState extends State<MyHomePageScreen> {\n+// class MyHomePageScreen extends StatelessWidget {\n+//   const MyHomePageScreen({Key? key}) : super(key: key);\n+\n+  @override\n   Widget build(BuildContext context) {\n     return BlocBuilder<AuthBlocCubit, AuthBlocState>(builder: (context, state) {\n       if (state is AuthBlocLoginState) {\n         return BlocProvider(\n"
                },
                {
                    "date": 1650586569986,
                    "content": "Index: \n===================================================================\n--- \n+++ \n@@ -1,4 +1,5 @@\n+import 'package:majootestcase/ui/extra/loading.dart';\n import 'package:majootestcase/ui/home_bloc/home_bloc_screen.dart';\n import 'package:majootestcase/ui/login/login_page.dart';\n import 'package:flutter/foundation.dart';\n import 'bloc/auth_bloc/auth_bloc_cubit.dart';\n@@ -42,9 +43,11 @@\n \n   @override\n   Widget build(BuildContext context) {\n     return BlocBuilder<AuthBlocCubit, AuthBlocState>(builder: (context, state) {\n-      if (state is AuthBlocLoginState) {\n+      if (state is AuthBlocLoadingState) {\n+        return LoadingIndicator();\n+      } else if (state is AuthBlocLoginState) {\n         return BlocProvider(\n           create: (context) => AuthBlocCubit(),\n           child: LoginPage(),\n         );\n"
                },
                {
                    "date": 1650586721066,
                    "content": "Index: \n===================================================================\n--- \n+++ \n@@ -21,10 +21,11 @@\n       theme: ThemeData(\n         primarySwatch: Colors.blue,\n         visualDensity: VisualDensity.adaptivePlatformDensity,\n       ),\n-      home: BlocProvider(\n-        create: (context) => AuthBlocCubit()..fetchHistoryLogin(),\n+      home: BlocProvider.value(\n+        value: BlocProvider.of<AuthBlocCubit>(context),\n+        // create: (context) => AuthBlocCubit()..fetchHistoryLogin(),\n         child: MyHomePageScreen(),\n       ),\n     );\n   }\n@@ -46,10 +47,11 @@\n     return BlocBuilder<AuthBlocCubit, AuthBlocState>(builder: (context, state) {\n       if (state is AuthBlocLoadingState) {\n         return LoadingIndicator();\n       } else if (state is AuthBlocLoginState) {\n-        return BlocProvider(\n-          create: (context) => AuthBlocCubit(),\n+        return BlocProvider.value(\n+          value: BlocProvider.of<AuthBlocCubit>(context),\n+          // create: (context) => AuthBlocCubit(),\n           child: LoginPage(),\n         );\n       } else if (state is AuthBlocLoggedInState) {\n         return BlocProvider(\n"
                },
                {
                    "date": 1650586767679,
                    "content": "Index: \n===================================================================\n--- \n+++ \n@@ -22,9 +22,9 @@\n         primarySwatch: Colors.blue,\n         visualDensity: VisualDensity.adaptivePlatformDensity,\n       ),\n       home: BlocProvider.value(\n-        value: BlocProvider.of<AuthBlocCubit>(context),\n+        value: BlocProvider.of<AuthBlocCubit>(context)..fetchHistoryLogin(),\n         // create: (context) => AuthBlocCubit()..fetchHistoryLogin(),\n         child: MyHomePageScreen(),\n       ),\n     );\n"
                },
                {
                    "date": 1650586843814,
                    "content": "Index: \n===================================================================\n--- \n+++ \n@@ -21,11 +21,10 @@\n       theme: ThemeData(\n         primarySwatch: Colors.blue,\n         visualDensity: VisualDensity.adaptivePlatformDensity,\n       ),\n-      home: BlocProvider.value(\n-        value: BlocProvider.of<AuthBlocCubit>(context)..fetchHistoryLogin(),\n-        // create: (context) => AuthBlocCubit()..fetchHistoryLogin(),\n+      home: BlocProvider(\n+        create: (context) => AuthBlocCubit()..fetchHistoryLogin(),\n         child: MyHomePageScreen(),\n       ),\n     );\n   }\n"
                },
                {
                    "date": 1650587005755,
                    "content": "Index: \n===================================================================\n--- \n+++ \n@@ -1,5 +1,4 @@\n-import 'package:majootestcase/ui/extra/loading.dart';\n import 'package:majootestcase/ui/home_bloc/home_bloc_screen.dart';\n import 'package:majootestcase/ui/login/login_page.dart';\n import 'package:flutter/foundation.dart';\n import 'bloc/auth_bloc/auth_bloc_cubit.dart';\n@@ -43,14 +42,11 @@\n \n   @override\n   Widget build(BuildContext context) {\n     return BlocBuilder<AuthBlocCubit, AuthBlocState>(builder: (context, state) {\n-      if (state is AuthBlocLoadingState) {\n-        return LoadingIndicator();\n-      } else if (state is AuthBlocLoginState) {\n-        return BlocProvider.value(\n-          value: BlocProvider.of<AuthBlocCubit>(context),\n-          // create: (context) => AuthBlocCubit(),\n+      if (state is AuthBlocLoginState) {\n+        return BlocProvider(\n+          create: (context) => AuthBlocCubit(),\n           child: LoginPage(),\n         );\n       } else if (state is AuthBlocLoggedInState) {\n         return BlocProvider(\n"
                },
                {
                    "date": 1650587138069,
                    "content": "Index: \n===================================================================\n--- \n+++ \n@@ -20,9 +20,9 @@\n       theme: ThemeData(\n         primarySwatch: Colors.blue,\n         visualDensity: VisualDensity.adaptivePlatformDensity,\n       ),\n-      home: BlocProvider(\n+      home: BlocProvider<AuthBlocCubit>(\n         create: (context) => AuthBlocCubit()..fetchHistoryLogin(),\n         child: MyHomePageScreen(),\n       ),\n     );\n"
                },
                {
                    "date": 1650587494503,
                    "content": "Index: \n===================================================================\n--- \n+++ \n@@ -1,4 +1,6 @@\n+import 'package:majootestcase/ui/extra/error_screen.dart';\n+import 'package:majootestcase/ui/extra/loading.dart';\n import 'package:majootestcase/ui/home_bloc/home_bloc_screen.dart';\n import 'package:majootestcase/ui/login/login_page.dart';\n import 'package:flutter/foundation.dart';\n import 'bloc/auth_bloc/auth_bloc_cubit.dart';\n@@ -42,20 +44,33 @@\n \n   @override\n   Widget build(BuildContext context) {\n     return BlocBuilder<AuthBlocCubit, AuthBlocState>(builder: (context, state) {\n-      if (state is AuthBlocLoginState) {\n+      if (state is AuthBlocLoggedInState) {\n         return BlocProvider(\n-          create: (context) => AuthBlocCubit(),\n-          child: LoginPage(),\n-        );\n-      } else if (state is AuthBlocLoggedInState) {\n-        return BlocProvider(\n           create: (context) => HomeBlocCubit()..fetching_data(),\n           child: HomeBlocScreen(),\n         );\n+      } else if (state is AuthBlocLoadingState) {\n+        return LoadingIndicator();\n+      } else if (state is AuthBlocInitialState) {\n+        return Scaffold();\n+      } else if (state is AuthBlocErrorState) {\n+        return ErrorScreen(message: state.error);\n       }\n \n+      // if (state is AuthBlocLoginState) {\n+      //   return BlocProvider(\n+      //     create: (context) => AuthBlocCubit(),\n+      //     child: LoginPage(),\n+      //   );\n+      // } else if (state is AuthBlocLoggedInState) {\n+      //   return BlocProvider(\n+      //     create: (context) => HomeBlocCubit()..fetching_data(),\n+      //     child: HomeBlocScreen(),\n+      //   );\n+      // }\n+\n       return Center(\n           child: Text(kDebugMode ? \"state not implemented $state\" : \"\"));\n     });\n   }\n"
                },
                {
                    "date": 1650587544851,
                    "content": "Index: \n===================================================================\n--- \n+++ \n@@ -52,18 +52,21 @@\n         );\n       } else if (state is AuthBlocLoadingState) {\n         return LoadingIndicator();\n       } else if (state is AuthBlocInitialState) {\n-        return Scaffold();\n+        return BlocProvider(\n+          create: (context) => AuthBlocCubit(),\n+          child: LoginPage(),\n+        );\n       } else if (state is AuthBlocErrorState) {\n         return ErrorScreen(message: state.error);\n       }\n \n       // if (state is AuthBlocLoginState) {\n-      //   return BlocProvider(\n-      //     create: (context) => AuthBlocCubit(),\n-      //     child: LoginPage(),\n-      //   );\n+      // return BlocProvider(\n+      //   create: (context) => AuthBlocCubit(),\n+      //   child: LoginPage(),\n+      // );\n       // } else if (state is AuthBlocLoggedInState) {\n       //   return BlocProvider(\n       //     create: (context) => HomeBlocCubit()..fetching_data(),\n       //     child: HomeBlocScreen(),\n"
                },
                {
                    "date": 1650587556645,
                    "content": "Index: \n===================================================================\n--- \n+++ \n@@ -51,9 +51,9 @@\n           child: HomeBlocScreen(),\n         );\n       } else if (state is AuthBlocLoadingState) {\n         return LoadingIndicator();\n-      } else if (state is AuthBlocInitialState) {\n+      } else if (state is AuthBlocLoginState) {\n         return BlocProvider(\n           create: (context) => AuthBlocCubit(),\n           child: LoginPage(),\n         );\n"
                },
                {
                    "date": 1650588044384,
                    "content": "Index: \n===================================================================\n--- \n+++ \n@@ -1,6 +1,4 @@\n-import 'package:majootestcase/ui/extra/error_screen.dart';\n-import 'package:majootestcase/ui/extra/loading.dart';\n import 'package:majootestcase/ui/home_bloc/home_bloc_screen.dart';\n import 'package:majootestcase/ui/login/login_page.dart';\n import 'package:flutter/foundation.dart';\n import 'bloc/auth_bloc/auth_bloc_cubit.dart';\n@@ -22,58 +20,31 @@\n       theme: ThemeData(\n         primarySwatch: Colors.blue,\n         visualDensity: VisualDensity.adaptivePlatformDensity,\n       ),\n-      home: BlocProvider<AuthBlocCubit>(\n+      home: BlocProvider(\n         create: (context) => AuthBlocCubit()..fetchHistoryLogin(),\n         child: MyHomePageScreen(),\n       ),\n     );\n   }\n }\n \n-class MyHomePageScreen extends StatefulWidget {\n-  MyHomePageScreen({Key? key}) : super(key: key);\n+class MyHomePageScreen extends StatelessWidget {\n+  const MyHomePageScreen({Key? key}) : super(key: key);\n \n   @override\n-  State<MyHomePageScreen> createState() => _MyHomePageScreenState();\n-}\n-\n-class _MyHomePageScreenState extends State<MyHomePageScreen> {\n-// class MyHomePageScreen extends StatelessWidget {\n-//   const MyHomePageScreen({Key? key}) : super(key: key);\n-\n-  @override\n   Widget build(BuildContext context) {\n     return BlocBuilder<AuthBlocCubit, AuthBlocState>(builder: (context, state) {\n-      if (state is AuthBlocLoggedInState) {\n+      if (state is AuthBlocLoginState) {\n+        return LoginPage();\n+      } else if (state is AuthBlocLoggedInState) {\n         return BlocProvider(\n           create: (context) => HomeBlocCubit()..fetching_data(),\n           child: HomeBlocScreen(),\n         );\n-      } else if (state is AuthBlocLoadingState) {\n-        return LoadingIndicator();\n-      } else if (state is AuthBlocLoginState) {\n-        return BlocProvider(\n-          create: (context) => AuthBlocCubit(),\n-          child: LoginPage(),\n-        );\n-      } else if (state is AuthBlocErrorState) {\n-        return ErrorScreen(message: state.error);\n       }\n \n-      // if (state is AuthBlocLoginState) {\n-      // return BlocProvider(\n-      //   create: (context) => AuthBlocCubit(),\n-      //   child: LoginPage(),\n-      // );\n-      // } else if (state is AuthBlocLoggedInState) {\n-      //   return BlocProvider(\n-      //     create: (context) => HomeBlocCubit()..fetching_data(),\n-      //     child: HomeBlocScreen(),\n-      //   );\n-      // }\n-\n       return Center(\n           child: Text(kDebugMode ? \"state not implemented $state\" : \"\"));\n     });\n   }\n"
                },
                {
                    "date": 1650588822113,
                    "content": "Index: \n===================================================================\n--- \n+++ \n@@ -33,19 +33,21 @@\n   const MyHomePageScreen({Key? key}) : super(key: key);\n \n   @override\n   Widget build(BuildContext context) {\n-    return BlocBuilder<AuthBlocCubit, AuthBlocState>(builder: (context, state) {\n-      if (state is AuthBlocLoginState) {\n-        return LoginPage();\n-      } else if (state is AuthBlocLoggedInState) {\n-        return BlocProvider(\n-          create: (context) => HomeBlocCubit()..fetching_data(),\n-          child: HomeBlocScreen(),\n-        );\n-      }\n+    return BlocBuilder<AuthBlocCubit, AuthBlocState>(\n+        bloc: AuthBlocCubit(),\n+        builder: (context, state) {\n+          if (state is AuthBlocLoginState) {\n+            return LoginPage();\n+          } else if (state is AuthBlocLoggedInState) {\n+            return BlocProvider(\n+              create: (context) => HomeBlocCubit()..fetching_data(),\n+              child: HomeBlocScreen(),\n+            );\n+          }\n \n-      return Center(\n-          child: Text(kDebugMode ? \"state not implemented $state\" : \"\"));\n-    });\n+          return Center(\n+              child: Text(kDebugMode ? \"state not implemented $state\" : \"\"));\n+        });\n   }\n }\n"
                },
                {
                    "date": 1650588859650,
                    "content": "Index: \n===================================================================\n--- \n+++ \n@@ -34,9 +34,9 @@\n \n   @override\n   Widget build(BuildContext context) {\n     return BlocBuilder<AuthBlocCubit, AuthBlocState>(\n-        bloc: AuthBlocCubit(),\n+        bloc: BlocProvider.of<AuthBlocCubit>(context),\n         builder: (context, state) {\n           if (state is AuthBlocLoginState) {\n             return LoginPage();\n           } else if (state is AuthBlocLoggedInState) {\n"
                },
                {
                    "date": 1650588893169,
                    "content": "Index: \n===================================================================\n--- \n+++ \n@@ -21,9 +21,9 @@\n         primarySwatch: Colors.blue,\n         visualDensity: VisualDensity.adaptivePlatformDensity,\n       ),\n       home: BlocProvider(\n-        create: (context) => AuthBlocCubit()..fetchHistoryLogin(),\n+        create: (context) => AuthBlocCubit(),\n         child: MyHomePageScreen(),\n       ),\n     );\n   }\n"
                },
                {
                    "date": 1650588909726,
                    "content": "Index: \n===================================================================\n--- \n+++ \n@@ -21,9 +21,9 @@\n         primarySwatch: Colors.blue,\n         visualDensity: VisualDensity.adaptivePlatformDensity,\n       ),\n       home: BlocProvider(\n-        create: (context) => AuthBlocCubit(),\n+        create: (context) => AuthBlocCubit()..fetchHistoryLogin(),\n         child: MyHomePageScreen(),\n       ),\n     );\n   }\n"
                },
                {
                    "date": 1650589051732,
                    "content": "Index: \n===================================================================\n--- \n+++ \n@@ -33,21 +33,19 @@\n   const MyHomePageScreen({Key? key}) : super(key: key);\n \n   @override\n   Widget build(BuildContext context) {\n-    return BlocBuilder<AuthBlocCubit, AuthBlocState>(\n-        bloc: BlocProvider.of<AuthBlocCubit>(context),\n-        builder: (context, state) {\n-          if (state is AuthBlocLoginState) {\n-            return LoginPage();\n-          } else if (state is AuthBlocLoggedInState) {\n-            return BlocProvider(\n-              create: (context) => HomeBlocCubit()..fetching_data(),\n-              child: HomeBlocScreen(),\n-            );\n-          }\n+    return BlocBuilder<AuthBlocCubit, AuthBlocState>(builder: (context, state) {\n+      if (state is AuthBlocLoginState) {\n+        return LoginPage();\n+      } else if (state is AuthBlocLoggedInState) {\n+        return BlocProvider(\n+          create: (context) => HomeBlocCubit()..fetching_data(),\n+          child: HomeBlocScreen(),\n+        );\n+      }\n \n-          return Center(\n-              child: Text(kDebugMode ? \"state not implemented $state\" : \"\"));\n-        });\n+      return Center(\n+          child: Text(kDebugMode ? \"state not implemented $state\" : \"\"));\n+    });\n   }\n }\n"
                },
                {
                    "date": 1650606044673,
                    "content": "Index: \n===================================================================\n--- \n+++ \n@@ -34,8 +34,9 @@\n \n   @override\n   Widget build(BuildContext context) {\n     return BlocBuilder<AuthBlocCubit, AuthBlocState>(builder: (context, state) {\n+      print('state is ${state}');\n       if (state is AuthBlocLoginState) {\n         return LoginPage();\n       } else if (state is AuthBlocLoggedInState) {\n         return BlocProvider(\n"
                },
                {
                    "date": 1650607473546,
                    "content": "Index: \n===================================================================\n--- \n+++ \n@@ -1,4 +1,6 @@\n+import 'package:majootestcase/ui/extra/error_screen.dart';\n+import 'package:majootestcase/ui/extra/loading.dart';\n import 'package:majootestcase/ui/home_bloc/home_bloc_screen.dart';\n import 'package:majootestcase/ui/login/login_page.dart';\n import 'package:flutter/foundation.dart';\n import 'bloc/auth_bloc/auth_bloc_cubit.dart';\n@@ -35,15 +37,19 @@\n   @override\n   Widget build(BuildContext context) {\n     return BlocBuilder<AuthBlocCubit, AuthBlocState>(builder: (context, state) {\n       print('state is ${state}');\n-      if (state is AuthBlocLoginState) {\n-        return LoginPage();\n-      } else if (state is AuthBlocLoggedInState) {\n+      if (state is AuthBlocLoggedInState) {\n         return BlocProvider(\n           create: (context) => HomeBlocCubit()..fetching_data(),\n           child: HomeBlocScreen(),\n         );\n+      } else if (state is AuthBlocLoginState) {\n+        return LoginPage();\n+      } else if (state is AuthBlocLoadingState) {\n+        return Center(child: LoadingIndicator());\n+      } else if (state is AuthBlocErrorState) {\n+        return ErrorScreen();\n       }\n \n       return Center(\n           child: Text(kDebugMode ? \"state not implemented $state\" : \"\"));\n"
                },
                {
                    "date": 1650607507763,
                    "content": "Index: \n===================================================================\n--- \n+++ \n@@ -47,9 +47,9 @@\n         return LoginPage();\n       } else if (state is AuthBlocLoadingState) {\n         return Center(child: LoadingIndicator());\n       } else if (state is AuthBlocErrorState) {\n-        return ErrorScreen();\n+        return ErrorScreen(message: state.error);\n       }\n \n       return Center(\n           child: Text(kDebugMode ? \"state not implemented $state\" : \"\"));\n"
                },
                {
                    "date": 1650607519262,
                    "content": "Index: \n===================================================================\n--- \n+++ \n@@ -47,9 +47,9 @@\n         return LoginPage();\n       } else if (state is AuthBlocLoadingState) {\n         return Center(child: LoadingIndicator());\n       } else if (state is AuthBlocErrorState) {\n-        return ErrorScreen(message: state.error);\n+        return ErrorScreen(message: state.error.toString());\n       }\n \n       return Center(\n           child: Text(kDebugMode ? \"state not implemented $state\" : \"\"));\n"
                },
                {
                    "date": 1650607632192,
                    "content": "Index: \n===================================================================\n--- \n+++ \n@@ -36,8 +36,10 @@\n \n   @override\n   Widget build(BuildContext context) {\n     return BlocBuilder<AuthBlocCubit, AuthBlocState>(builder: (context, state) {\n+      BlocListener<AuthBlocCubit, AuthBlocState>(\n+          listener: ((context, state) => SnackBar(content: Text('yo'))));\n       print('state is ${state}');\n       if (state is AuthBlocLoggedInState) {\n         return BlocProvider(\n           create: (context) => HomeBlocCubit()..fetching_data(),\n@@ -46,10 +48,8 @@\n       } else if (state is AuthBlocLoginState) {\n         return LoginPage();\n       } else if (state is AuthBlocLoadingState) {\n         return Center(child: LoadingIndicator());\n-      } else if (state is AuthBlocErrorState) {\n-        return ErrorScreen(message: state.error.toString());\n       }\n \n       return Center(\n           child: Text(kDebugMode ? \"state not implemented $state\" : \"\"));\n"
                },
                {
                    "date": 1650608025113,
                    "content": "Index: \n===================================================================\n--- \n+++ \n@@ -36,10 +36,9 @@\n \n   @override\n   Widget build(BuildContext context) {\n     return BlocBuilder<AuthBlocCubit, AuthBlocState>(builder: (context, state) {\n-      BlocListener<AuthBlocCubit, AuthBlocState>(\n-          listener: ((context, state) => SnackBar(content: Text('yo'))));\n+      BlocListener(listener: ((context, state) => AuthBlocErrorState));\n       print('state is ${state}');\n       if (state is AuthBlocLoggedInState) {\n         return BlocProvider(\n           create: (context) => HomeBlocCubit()..fetching_data(),\n"
                },
                {
                    "date": 1650608207073,
                    "content": "Index: \n===================================================================\n--- \n+++ \n@@ -36,9 +36,8 @@\n \n   @override\n   Widget build(BuildContext context) {\n     return BlocBuilder<AuthBlocCubit, AuthBlocState>(builder: (context, state) {\n-      BlocListener(listener: ((context, state) => AuthBlocErrorState));\n       print('state is ${state}');\n       if (state is AuthBlocLoggedInState) {\n         return BlocProvider(\n           create: (context) => HomeBlocCubit()..fetching_data(),\n"
                },
                {
                    "date": 1650608260624,
                    "content": "Index: \n===================================================================\n--- \n+++ \n@@ -1,6 +1,4 @@\n-import 'package:majootestcase/ui/extra/error_screen.dart';\n-import 'package:majootestcase/ui/extra/loading.dart';\n import 'package:majootestcase/ui/home_bloc/home_bloc_screen.dart';\n import 'package:majootestcase/ui/login/login_page.dart';\n import 'package:flutter/foundation.dart';\n import 'bloc/auth_bloc/auth_bloc_cubit.dart';\n@@ -42,15 +40,13 @@\n         return BlocProvider(\n           create: (context) => HomeBlocCubit()..fetching_data(),\n           child: HomeBlocScreen(),\n         );\n-      } else if (state is AuthBlocLoginState) {\n+      }\n+      if (state is AuthBlocLoginState) {\n         return LoginPage();\n-      } else if (state is AuthBlocLoadingState) {\n-        return Center(child: LoadingIndicator());\n-      }\n-\n-      return Center(\n-          child: Text(kDebugMode ? \"state not implemented $state\" : \"\"));\n+      } else\n+        return Center(\n+            child: Text(kDebugMode ? \"state not implemented $state\" : \"\"));\n     });\n   }\n }\n"
                },
                {
                    "date": 1650608425318,
                    "content": "Index: \n===================================================================\n--- \n+++ \n@@ -40,13 +40,12 @@\n         return BlocProvider(\n           create: (context) => HomeBlocCubit()..fetching_data(),\n           child: HomeBlocScreen(),\n         );\n-      }\n-      if (state is AuthBlocLoginState) {\n+      } else if (state is AuthBlocLoginState) {\n         return LoginPage();\n-      } else\n-        return Center(\n-            child: Text(kDebugMode ? \"state not implemented $state\" : \"\"));\n+      } else if (state is AuthBlocLoadingState) {}\n+      return Center(\n+          child: Text(kDebugMode ? \"state not implemented $state\" : \"\"));\n     });\n   }\n }\n"
                },
                {
                    "date": 1650608447228,
                    "content": "Index: \n===================================================================\n--- \n+++ \n@@ -1,4 +1,5 @@\n+import 'package:majootestcase/ui/extra/loading.dart';\n import 'package:majootestcase/ui/home_bloc/home_bloc_screen.dart';\n import 'package:majootestcase/ui/login/login_page.dart';\n import 'package:flutter/foundation.dart';\n import 'bloc/auth_bloc/auth_bloc_cubit.dart';\n@@ -42,9 +43,11 @@\n           child: HomeBlocScreen(),\n         );\n       } else if (state is AuthBlocLoginState) {\n         return LoginPage();\n-      } else if (state is AuthBlocLoadingState) {}\n+      } else if (state is AuthBlocLoadingState) {\n+        return Center(child: LoadingIndicator());\n+      }\n       return Center(\n           child: Text(kDebugMode ? \"state not implemented $state\" : \"\"));\n     });\n   }\n"
                },
                {
                    "date": 1650617817225,
                    "content": "Index: \n===================================================================\n--- \n+++ \n@@ -1,4 +1,5 @@\n+import 'package:flutter_screenutil/flutter_screenutil.dart';\n import 'package:majootestcase/ui/extra/loading.dart';\n import 'package:majootestcase/ui/home_bloc/home_bloc_screen.dart';\n import 'package:majootestcase/ui/login/login_page.dart';\n import 'package:flutter/foundation.dart';\n@@ -15,19 +16,24 @@\n class MyApp extends StatelessWidget {\n   // This widget is the root of your application.\n   @override\n   Widget build(BuildContext context) {\n-    return MaterialApp(\n-      title: 'Flutter Demo',\n-      theme: ThemeData(\n-        primarySwatch: Colors.blue,\n-        visualDensity: VisualDensity.adaptivePlatformDensity,\n-      ),\n-      home: BlocProvider(\n-        create: (context) => AuthBlocCubit()..fetchHistoryLogin(),\n-        child: MyHomePageScreen(),\n-      ),\n-    );\n+    return ScreenUtilInit(\n+        designSize: Size(360, 640),\n+        // designSize: Size(360, 740),\n+        builder: (_) {\n+          return MaterialApp(\n+            title: 'Flutter Demo',\n+            theme: ThemeData(\n+              primarySwatch: Colors.blue,\n+              visualDensity: VisualDensity.adaptivePlatformDensity,\n+            ),\n+            home: BlocProvider(\n+              create: (context) => AuthBlocCubit()..fetchHistoryLogin(),\n+              child: MyHomePageScreen(),\n+            ),\n+          );\n+        });\n   }\n }\n \n class MyHomePageScreen extends StatelessWidget {\n"
                },
                {
                    "date": 1650617953340,
                    "content": "Index: \n===================================================================\n--- \n+++ \n@@ -44,9 +44,9 @@\n     return BlocBuilder<AuthBlocCubit, AuthBlocState>(builder: (context, state) {\n       print('state is ${state}');\n       if (state is AuthBlocLoggedInState) {\n         return BlocProvider(\n-          create: (context) => HomeBlocCubit()..fetching_data(),\n+          create: (context) => HomeBlocCubit()..fetchingData(),\n           child: HomeBlocScreen(),\n         );\n       } else if (state is AuthBlocLoginState) {\n         return LoginPage();\n"
                },
                {
                    "date": 1650619175940,
                    "content": "Index: \n===================================================================\n--- \n+++ \n@@ -19,9 +19,9 @@\n   Widget build(BuildContext context) {\n     return ScreenUtilInit(\n         designSize: Size(360, 640),\n         // designSize: Size(360, 740),\n-        builder: (_) {\n+        builder: (BuildContext context) {\n           return MaterialApp(\n             title: 'Flutter Demo',\n             theme: ThemeData(\n               primarySwatch: Colors.blue,\n"
                },
                {
                    "date": 1650621264791,
                    "content": "Index: \n===================================================================\n--- \n+++ \n@@ -2,8 +2,9 @@\n import 'package:majootestcase/ui/extra/loading.dart';\n import 'package:majootestcase/ui/home_bloc/home_bloc_screen.dart';\n import 'package:majootestcase/ui/login/login_page.dart';\n import 'package:flutter/foundation.dart';\n+import 'package:majootestcase/utils/constant.dart';\n import 'bloc/auth_bloc/auth_bloc_cubit.dart';\n import 'package:flutter_bloc/flutter_bloc.dart';\n \n import 'bloc/home_bloc/home_bloc_cubit.dart';\n@@ -17,9 +18,9 @@\n   // This widget is the root of your application.\n   @override\n   Widget build(BuildContext context) {\n     return ScreenUtilInit(\n-        designSize: Size(360, 640),\n+        designSize: Size(ScreenUtilConstants.width, ScreenUtilConstants.height),\n         // designSize: Size(360, 740),\n         builder: (BuildContext context) {\n           return MaterialApp(\n             title: 'Flutter Demo',\n"
                },
                {
                    "date": 1650621418364,
                    "content": "Index: \n===================================================================\n--- \n+++ \n@@ -42,9 +42,8 @@\n \n   @override\n   Widget build(BuildContext context) {\n     return BlocBuilder<AuthBlocCubit, AuthBlocState>(builder: (context, state) {\n-      print('state is ${state}');\n       if (state is AuthBlocLoggedInState) {\n         return BlocProvider(\n           create: (context) => HomeBlocCubit()..fetchingData(),\n           child: HomeBlocScreen(),\n"
                },
                {
                    "date": 1650623464708,
                    "content": "Index: \n===================================================================\n--- \n+++ \n@@ -2,8 +2,9 @@\n import 'package:majootestcase/ui/extra/loading.dart';\n import 'package:majootestcase/ui/home_bloc/home_bloc_screen.dart';\n import 'package:majootestcase/ui/login/login_page.dart';\n import 'package:flutter/foundation.dart';\n+import 'package:majootestcase/ui/signup/signup_page.dart';\n import 'package:majootestcase/utils/constant.dart';\n import 'bloc/auth_bloc/auth_bloc_cubit.dart';\n import 'package:flutter_bloc/flutter_bloc.dart';\n \n@@ -49,8 +50,10 @@\n           child: HomeBlocScreen(),\n         );\n       } else if (state is AuthBlocLoginState) {\n         return LoginPage();\n+      } else if (state is AuthBlocLoginState) {\n+        return SignUpPage();\n       } else if (state is AuthBlocLoadingState) {\n         return Center(child: LoadingIndicator());\n       }\n       return Center(\n"
                },
                {
                    "date": 1650623527111,
                    "content": "Index: \n===================================================================\n--- \n+++ \n@@ -50,9 +50,9 @@\n           child: HomeBlocScreen(),\n         );\n       } else if (state is AuthBlocLoginState) {\n         return LoginPage();\n-      } else if (state is AuthBlocLoginState) {\n+      } else if (state is AuthBlocSignUpState) {\n         return SignUpPage();\n       } else if (state is AuthBlocLoadingState) {\n         return Center(child: LoadingIndicator());\n       }\n"
                }
            ],
            "date": 1650576588803,
            "name": "Commit-0",
            "content": "import 'package:majootestcase/ui/home_bloc/home_bloc_screen.dart';\nimport 'package:majootestcase/ui/login/login_page.dart';\nimport 'package:flutter/foundation.dart';\nimport 'bloc/auth_bloc/auth_bloc_cubit.dart';\nimport 'package:flutter_bloc/flutter_bloc.dart';\n\nimport 'bloc/home_bloc/home_bloc_cubit.dart';\nimport 'package:flutter/material.dart';\n\nvoid main() {\n  runApp(MyApp());\n}\n\nclass MyApp extends StatelessWidget {\n  // This widget is the root of your application.\n  @override\n  Widget build(BuildContext context) {\n    return MaterialApp(\n      title: 'Flutter Demo',\n      theme: ThemeData(\n        primarySwatch: Colors.blue,\n        visualDensity: VisualDensity.adaptivePlatformDensity,\n      ),\n      home: BlocProvider(\n        create: (context) => AuthBlocCubit()..fetch_history_login(),\n        child: MyHomePageScreen(),\n      ),\n    );\n  }\n}\n\nclass MyHomePageScreen extends StatelessWidget {\n  const MyHomePageScreen({Key? key}) : super(key: key);\n\n  @override\n  Widget build(BuildContext context) {\n    return BlocBuilder<AuthBlocCubit, AuthBlocState>(builder: (context, state) {\n      if (state is AuthBlocLoginState) {\n        return LoginPage();\n      } else if (state is AuthBlocLoggedInState) {\n        return BlocProvider(\n          create: (context) => HomeBlocCubit()..fetching_data(),\n          child: HomeBlocScreen(),\n        );\n      }\n\n      return Center(\n          child: Text(kDebugMode ? \"state not implemented $state\" : \"\"));\n    });\n  }\n}\n"
        }
    ]
}