{
    "sourceFile": "lib/ui/home_bloc/widgets/recommendedListItem.dart",
    "activeCommit": 0,
    "commits": [
        {
            "activePatchIndex": 3,
            "patches": [
                {
                    "date": 1650618053158,
                    "content": "Index: \n===================================================================\n--- \n+++ \n"
                },
                {
                    "date": 1650620975466,
                    "content": "Index: \n===================================================================\n--- \n+++ \n@@ -1,5 +1,7 @@\n import 'package:flutter/material.dart';\r\n+import 'package:flutter_bloc/flutter_bloc.dart';\r\n+import 'package:majootestcase/bloc/detail_movie_bloc/detail_movie_bloc_cubit.dart';\r\n import 'package:majootestcase/models/movie_model.dart';\r\n import 'package:majootestcase/ui/detail_movie/detail_movie.dart';\r\n \r\n class RecommendedListItem extends StatelessWidget {\r\n@@ -14,10 +16,13 @@\n           onTap: () {\r\n             Navigator.push(\r\n               context,\r\n               MaterialPageRoute(\r\n-                builder: (_) => MovieDetailsScreen(\r\n-                  results: results,\r\n+                builder: (_) => BlocProvider(\r\n+                  create: (context) => DetailMovieBlocCubit(),\r\n+                  child: MovieDetailsScreen(\r\n+                    results: results,\r\n+                  ),\r\n                 ),\r\n               ),\r\n             );\r\n           },\r\n"
                },
                {
                    "date": 1650621143266,
                    "content": "Index: \n===================================================================\n--- \n+++ \n@@ -18,14 +18,14 @@\n               context,\r\n               MaterialPageRoute(\r\n                 builder: (_) => BlocProvider(\r\n                   create: (context) => DetailMovieBlocCubit(),\r\n-                  child: MovieDetailsScreen(\r\n-                    results: results,\r\n-                  ),\r\n+                  child: MovieDetailsScreen(),\r\n                 ),\r\n               ),\r\n             );\r\n+            BlocProvider.of<DetailMovieBlocCubit>(context)\r\n+                .getDetailMovie(results);\r\n           },\r\n           child: Card(\r\n             elevation: 5,\r\n             child: Row(\r\n"
                },
                {
                    "date": 1650621188075,
                    "content": "Index: \n===================================================================\n--- \n+++ \n@@ -17,15 +17,14 @@\n             Navigator.push(\r\n               context,\r\n               MaterialPageRoute(\r\n                 builder: (_) => BlocProvider(\r\n-                  create: (context) => DetailMovieBlocCubit(),\r\n+                  create: (context) =>\r\n+                      DetailMovieBlocCubit()..getDetailMovie(results),\r\n                   child: MovieDetailsScreen(),\r\n                 ),\r\n               ),\r\n             );\r\n-            BlocProvider.of<DetailMovieBlocCubit>(context)\r\n-                .getDetailMovie(results);\r\n           },\r\n           child: Card(\r\n             elevation: 5,\r\n             child: Row(\r\n"
                }
            ],
            "date": 1650618053158,
            "name": "Commit-0",
            "content": "import 'package:flutter/material.dart';\r\nimport 'package:majootestcase/models/movie_model.dart';\r\nimport 'package:majootestcase/ui/detail_movie/detail_movie.dart';\r\n\r\nclass RecommendedListItem extends StatelessWidget {\r\n  final Results results;\r\n  RecommendedListItem(this.results);\r\n\r\n  @override\r\n  Widget build(BuildContext context) {\r\n    return Column(\r\n      children: <Widget>[\r\n        GestureDetector(\r\n          onTap: () {\r\n            Navigator.push(\r\n              context,\r\n              MaterialPageRoute(\r\n                builder: (_) => MovieDetailsScreen(\r\n                  results: results,\r\n                ),\r\n              ),\r\n            );\r\n          },\r\n          child: Card(\r\n            elevation: 5,\r\n            child: Row(\r\n              children: <Widget>[\r\n                Hero(\r\n                  tag: results.id ?? \"\",\r\n                  child: Container(\r\n                    height: 150,\r\n                    width: 100,\r\n                    decoration: BoxDecoration(\r\n                      borderRadius: BorderRadius.only(\r\n                        bottomLeft: Radius.circular(5),\r\n                        topLeft: Radius.circular(5),\r\n                      ),\r\n                      image: DecorationImage(\r\n                        fit: BoxFit.cover,\r\n                        image: NetworkImage(\r\n                          'https://image.tmdb.org/t/p/w500/' +\r\n                              results.posterPath!,\r\n                        ),\r\n                      ),\r\n                    ),\r\n                  ),\r\n                ),\r\n                Container(\r\n                  padding: const EdgeInsets.all(10),\r\n                  height: 150,\r\n                  child: Column(\r\n                    crossAxisAlignment: CrossAxisAlignment.start,\r\n                    children: <Widget>[\r\n                      Container(\r\n                        width: 230,\r\n                        child: Text(\r\n                          results.originalTitle ?? results.title ?? \"\",\r\n                          style: TextStyle(\r\n                            fontSize: 16,\r\n                            fontWeight: FontWeight.bold,\r\n                          ),\r\n                        ),\r\n                      ),\r\n                      SizedBox(\r\n                        height: 5,\r\n                      ),\r\n                      Container(\r\n                        width: 230,\r\n                        // height: 80,\r\n                        child: Text(\r\n                          results.overview ?? \"\",\r\n                          style: TextStyle(fontSize: 12),\r\n                          maxLines: 6,\r\n                        ),\r\n                      ),\r\n                    ],\r\n                  ),\r\n                ),\r\n              ],\r\n            ),\r\n          ),\r\n        ),\r\n        SizedBox(\r\n          height: 10,\r\n        ),\r\n      ],\r\n    );\r\n  }\r\n}\r\n"
        }
    ]
}