{
    "sourceFile": "lib/ui/signup/signup_page.dart",
    "activeCommit": 0,
    "commits": [
        {
            "activePatchIndex": 41,
            "patches": [
                {
                    "date": 1650618705956,
                    "content": "Index: \n===================================================================\n--- \n+++ \n"
                },
                {
                    "date": 1650618738890,
                    "content": "Index: \n===================================================================\n--- \n+++ \n@@ -150,23 +150,8 @@\n       ),\r\n     );\r\n   }\r\n \r\n-  void handleSignUp() {\r\n-    final _email = _emailController.value;\r\n-    final _password = _passwordController.value;\r\n-    if (formKey.currentState?.validate() == true &&\r\n-        _email.isNotEmpty &&\r\n-        _password.isNotEmpty) {\r\n-      AuthBlocCubit authBlocCubit = AuthBlocCubit();\r\n-      User user = User(\r\n-        email: _email,\r\n-        password: _password,\r\n-      );\r\n-      BlocProvider.of<AuthBlocCubit>(context).SignUpUser();\r\n-    }\r\n-  }\r\n-\r\n   void handleSignUp() async {\r\n     final _email = _emailController.value;\r\n     final _password = _passwordController.value;\r\n     if (formKey.currentState?.validate() == true &&\r\n"
                },
                {
                    "date": 1650618756565,
                    "content": "Index: \n===================================================================\n--- \n+++ \n@@ -138,13 +138,13 @@\n           handleSignUp();\r\n         },\r\n         child: RichText(\r\n           text: TextSpan(\r\n-              text: 'Belum punya akun? ',\r\n+              text: 'Sudah punya akun? ',\r\n               style: TextStyle(color: Colors.black45),\r\n               children: [\r\n                 TextSpan(\r\n-                  text: 'Daftar',\r\n+                  text: 'Masuk',\r\n                 ),\r\n               ]),\r\n         ),\r\n       ),\r\n"
                },
                {
                    "date": 1650618872954,
                    "content": "Index: \n===================================================================\n--- \n+++ \n@@ -56,9 +56,9 @@\n                     // color: colorBlue,\r\n                   ),\r\n                 ),\r\n                 Text(\r\n-                  'Silahkan SignUp terlebih dahulu',\r\n+                  'Silahkan Daftar terlebih dahulu',\r\n                   style: TextStyle(\r\n                     fontSize: 15,\r\n                     fontWeight: FontWeight.w400,\r\n                   ),\r\n"
                },
                {
                    "date": 1650618894195,
                    "content": "Index: \n===================================================================\n--- \n+++ \n@@ -70,9 +70,9 @@\n                 SizedBox(\r\n                   height: 50,\r\n                 ),\r\n                 CustomButton(\r\n-                  text: 'SignUp',\r\n+                  text: 'Register',\r\n                   onPressed: handleSignUp,\r\n                   height: 100,\r\n                 ),\r\n                 SizedBox(\r\n"
                },
                {
                    "date": 1650618925456,
                    "content": "Index: \n===================================================================\n--- \n+++ \n@@ -134,9 +134,17 @@\n     return Align(\r\n       alignment: Alignment.center,\r\n       child: TextButton(\r\n         onPressed: () {\r\n-          handleSignUp();\r\n+          Navigator.push(\r\n+            context,\r\n+            MaterialPageRoute(\r\n+              builder: (_) => BlocProvider(\r\n+                create: (context) => AuthBlocCubit(),\r\n+                child: SignUpPage(),\r\n+              ),\r\n+            ),\r\n+          );\r\n         },\r\n         child: RichText(\r\n           text: TextSpan(\r\n               text: 'Sudah punya akun? ',\r\n"
                },
                {
                    "date": 1650618937474,
                    "content": "Index: \n===================================================================\n--- \n+++ \n@@ -5,8 +5,9 @@\n import 'package:majootestcase/common/widget/custom_button.dart';\r\n import 'package:majootestcase/common/widget/text_form_field.dart';\r\n import 'package:majootestcase/models/user.dart';\r\n import 'package:majootestcase/ui/home_bloc/home_bloc_screen.dart';\r\n+import 'package:majootestcase/ui/login/login_page.dart';\r\n \r\n class SignUpPage extends StatefulWidget {\r\n   @override\r\n   _LogoutState createState() => _LogoutState();\r\n@@ -77,9 +78,9 @@\n                 ),\r\n                 SizedBox(\r\n                   height: 50,\r\n                 ),\r\n-                _register(),\r\n+                _login(),\r\n               ],\r\n             ),\r\n           ),\r\n         ),\r\n@@ -129,9 +130,9 @@\n       ),\r\n     );\r\n   }\r\n \r\n-  Widget _register() {\r\n+  Widget _login() {\r\n     return Align(\r\n       alignment: Alignment.center,\r\n       child: TextButton(\r\n         onPressed: () {\r\n@@ -139,9 +140,9 @@\n             context,\r\n             MaterialPageRoute(\r\n               builder: (_) => BlocProvider(\r\n                 create: (context) => AuthBlocCubit(),\r\n-                child: SignUpPage(),\r\n+                child: LoginPage(),\r\n               ),\r\n             ),\r\n           );\r\n         },\r\n"
                },
                {
                    "date": 1650619090021,
                    "content": "Index: \n===================================================================\n--- \n+++ \n@@ -135,17 +135,18 @@\n     return Align(\r\n       alignment: Alignment.center,\r\n       child: TextButton(\r\n         onPressed: () {\r\n-          Navigator.push(\r\n-            context,\r\n-            MaterialPageRoute(\r\n-              builder: (_) => BlocProvider(\r\n-                create: (context) => AuthBlocCubit(),\r\n-                child: LoginPage(),\r\n-              ),\r\n-            ),\r\n-          );\r\n+          Navigator.pop(context);\r\n+          // Navigator.push(\r\n+          //   context,\r\n+          //   MaterialPageRoute(\r\n+          //     builder: (_) => BlocProvider(\r\n+          //       create: (context) => AuthBlocCubit(),\r\n+          //       child: LoginPage(),\r\n+          //     ),\r\n+          //   ),\r\n+          // );\r\n         },\r\n         child: RichText(\r\n           text: TextSpan(\r\n               text: 'Sudah punya akun? ',\r\n"
                },
                {
                    "date": 1650619788806,
                    "content": "Index: \n===================================================================\n--- \n+++ \n@@ -43,12 +43,12 @@\n           }\r\n         },\r\n         child: SingleChildScrollView(\r\n           child: Padding(\r\n-            padding: EdgeInsets.only(top: 75, left: 25, bottom: 25, right: 25),\r\n+            padding: EdgeInsets.only(top: 50, left: 25, bottom: 25, right: 25),\r\n             child: Column(\r\n               mainAxisAlignment: MainAxisAlignment.center,\r\n-              crossAxisAlignment: CrossAxisAlignment.start,\r\n+              crossAxisAlignment: CrossAxisAlignment.center,\r\n               children: <Widget>[\r\n                 Text(\r\n                   'Selamat Datang',\r\n                   style: TextStyle(\r\n@@ -57,15 +57,20 @@\n                     // color: colorBlue,\r\n                   ),\r\n                 ),\r\n                 Text(\r\n-                  'Silahkan Daftar terlebih dahulu',\r\n+                  'Silahkan login terlebih dahulu',\r\n                   style: TextStyle(\r\n                     fontSize: 15,\r\n                     fontWeight: FontWeight.w400,\r\n                   ),\r\n                 ),\r\n                 SizedBox(\r\n+                  height: 20,\r\n+                ),\r\n+                Image.network(\r\n+                    'https://img.freepik.com/free-vector/online-registration-sign-up-with-man-sitting-near-smartphone_268404-95.jpg?w=2000'),\r\n+                SizedBox(\r\n                   height: 9,\r\n                 ),\r\n                 _form(),\r\n                 SizedBox(\r\n"
                },
                {
                    "date": 1650619796226,
                    "content": "Index: \n===================================================================\n--- \n+++ \n@@ -57,9 +57,9 @@\n                     // color: colorBlue,\r\n                   ),\r\n                 ),\r\n                 Text(\r\n-                  'Silahkan login terlebih dahulu',\r\n+                  'Silahkan daftar terlebih dahulu',\r\n                   style: TextStyle(\r\n                     fontSize: 15,\r\n                     fontWeight: FontWeight.w400,\r\n                   ),\r\n"
                },
                {
                    "date": 1650619809427,
                    "content": "Index: \n===================================================================\n--- \n+++ \n@@ -48,26 +48,26 @@\n             child: Column(\r\n               mainAxisAlignment: MainAxisAlignment.center,\r\n               crossAxisAlignment: CrossAxisAlignment.center,\r\n               children: <Widget>[\r\n-                Text(\r\n-                  'Selamat Datang',\r\n-                  style: TextStyle(\r\n-                    fontSize: 24,\r\n-                    fontWeight: FontWeight.bold,\r\n-                    // color: colorBlue,\r\n-                  ),\r\n-                ),\r\n-                Text(\r\n-                  'Silahkan daftar terlebih dahulu',\r\n-                  style: TextStyle(\r\n-                    fontSize: 15,\r\n-                    fontWeight: FontWeight.w400,\r\n-                  ),\r\n-                ),\r\n-                SizedBox(\r\n-                  height: 20,\r\n-                ),\r\n+                // Text(\r\n+                //   'Selamat Datang',\r\n+                //   style: TextStyle(\r\n+                //     fontSize: 24,\r\n+                //     fontWeight: FontWeight.bold,\r\n+                //     // color: colorBlue,\r\n+                //   ),\r\n+                // ),\r\n+                // Text(\r\n+                //   'Silahkan daftar terlebih dahulu',\r\n+                //   style: TextStyle(\r\n+                //     fontSize: 15,\r\n+                //     fontWeight: FontWeight.w400,\r\n+                //   ),\r\n+                // ),\r\n+                // SizedBox(\r\n+                //   height: 20,\r\n+                // ),\r\n                 Image.network(\r\n                     'https://img.freepik.com/free-vector/online-registration-sign-up-with-man-sitting-near-smartphone_268404-95.jpg?w=2000'),\r\n                 SizedBox(\r\n                   height: 9,\r\n"
                },
                {
                    "date": 1650619817390,
                    "content": "Index: \n===================================================================\n--- \n+++ \n@@ -43,9 +43,9 @@\n           }\r\n         },\r\n         child: SingleChildScrollView(\r\n           child: Padding(\r\n-            padding: EdgeInsets.only(top: 50, left: 25, bottom: 25, right: 25),\r\n+            padding: EdgeInsets.only(top: 100, left: 25, bottom: 25, right: 25),\r\n             child: Column(\r\n               mainAxisAlignment: MainAxisAlignment.center,\r\n               crossAxisAlignment: CrossAxisAlignment.center,\r\n               children: <Widget>[\r\n"
                },
                {
                    "date": 1650619847611,
                    "content": "Index: \n===================================================================\n--- \n+++ \n@@ -67,9 +67,9 @@\n                 // SizedBox(\r\n                 //   height: 20,\r\n                 // ),\r\n                 Image.network(\r\n-                    'https://img.freepik.com/free-vector/online-registration-sign-up-with-man-sitting-near-smartphone_268404-95.jpg?w=2000'),\r\n+                    'https://img.freepik.com/free-vector/sign-up-concept-illustration_114360-7865.jpg'),\r\n                 SizedBox(\r\n                   height: 9,\r\n                 ),\r\n                 _form(),\r\n"
                },
                {
                    "date": 1650619859562,
                    "content": "Index: \n===================================================================\n--- \n+++ \n@@ -81,9 +81,9 @@\n                   onPressed: handleSignUp,\r\n                   height: 100,\r\n                 ),\r\n                 SizedBox(\r\n-                  height: 50,\r\n+                  height: 20,\r\n                 ),\r\n                 _login(),\r\n               ],\r\n             ),\r\n"
                },
                {
                    "date": 1650619869833,
                    "content": "Index: \n===================================================================\n--- \n+++ \n@@ -73,9 +73,9 @@\n                   height: 9,\r\n                 ),\r\n                 _form(),\r\n                 SizedBox(\r\n-                  height: 50,\r\n+                  height: 30.h,\r\n                 ),\r\n                 CustomButton(\r\n                   text: 'Register',\r\n                   onPressed: handleSignUp,\r\n"
                },
                {
                    "date": 1650619877410,
                    "content": "Index: \n===================================================================\n--- \n+++ \n@@ -1,6 +1,7 @@\n import 'package:flutter/material.dart';\r\n import 'package:flutter_bloc/flutter_bloc.dart';\r\n+import 'package:flutter_screenutil/flutter_screenutil.dart';\r\n import 'package:majootestcase/bloc/auth_bloc/auth_bloc_cubit.dart';\r\n import 'package:majootestcase/bloc/home_bloc/home_bloc_cubit.dart';\r\n import 'package:majootestcase/common/widget/custom_button.dart';\r\n import 'package:majootestcase/common/widget/text_form_field.dart';\r\n@@ -78,9 +79,9 @@\n                 ),\r\n                 CustomButton(\r\n                   text: 'Register',\r\n                   onPressed: handleSignUp,\r\n-                  height: 100,\r\n+                  height: 100.r,\r\n                 ),\r\n                 SizedBox(\r\n                   height: 20,\r\n                 ),\r\n"
                },
                {
                    "date": 1650619977168,
                    "content": "Index: \n===================================================================\n--- \n+++ \n@@ -14,10 +14,12 @@\n   _LogoutState createState() => _LogoutState();\r\n }\r\n \r\n class _LogoutState extends State<SignUpPage> {\r\n+  final _usernameController = TextController(initialValue: '');\r\n   final _emailController = TextController(initialValue: '');\r\n   final _passwordController = TextController(initialValue: '');\r\n+\r\n   GlobalKey<FormState> formKey = new GlobalKey<FormState>();\r\n \r\n   bool _isObscurePassword = true;\r\n \r\n@@ -82,9 +84,9 @@\n                   onPressed: handleSignUp,\r\n                   height: 100.r,\r\n                 ),\r\n                 SizedBox(\r\n-                  height: 20,\r\n+                  height: 20.h,\r\n                 ),\r\n                 _login(),\r\n               ],\r\n             ),\r\n@@ -100,8 +102,18 @@\n       child: Column(\r\n         children: [\r\n           CustomTextFormField(\r\n             context: context,\r\n+            controller: _usernameController,\r\n+            isEmail: true,\r\n+            hint: 'example',\r\n+            label: 'Username',\r\n+            // validator: (String? val) {\r\n+            //   return val;\r\n+            // },\r\n+          ),\r\n+          CustomTextFormField(\r\n+            context: context,\r\n             controller: _emailController,\r\n             isEmail: true,\r\n             hint: 'Example@123.com',\r\n             label: 'Email',\r\n"
                },
                {
                    "date": 1650619994461,
                    "content": "Index: \n===================================================================\n--- \n+++ \n@@ -103,9 +103,8 @@\n         children: [\r\n           CustomTextFormField(\r\n             context: context,\r\n             controller: _usernameController,\r\n-            isEmail: true,\r\n             hint: 'example',\r\n             label: 'Username',\r\n             // validator: (String? val) {\r\n             //   return val;\r\n"
                },
                {
                    "date": 1650620009195,
                    "content": "Index: \n===================================================================\n--- \n+++ \n@@ -109,8 +109,9 @@\n             // validator: (String? val) {\r\n             //   return val;\r\n             // },\r\n           ),\r\n+          SizedBox(height: 5.h),\r\n           CustomTextFormField(\r\n             context: context,\r\n             controller: _emailController,\r\n             isEmail: true,\r\n"
                },
                {
                    "date": 1650620020745,
                    "content": "Index: \n===================================================================\n--- \n+++ \n@@ -124,8 +124,9 @@\n                 result = pattern.hasMatch(val) ? null : 'email is invalid';\r\n               return result;\r\n             },\r\n           ),\r\n+          SizedBox(height: 5.h),\r\n           CustomTextFormField(\r\n             context: context,\r\n             label: 'Password',\r\n             hint: 'password',\r\n"
                },
                {
                    "date": 1650620039006,
                    "content": "Index: \n===================================================================\n--- \n+++ \n@@ -46,9 +46,10 @@\n           }\r\n         },\r\n         child: SingleChildScrollView(\r\n           child: Padding(\r\n-            padding: EdgeInsets.only(top: 100, left: 25, bottom: 25, right: 25),\r\n+            padding:\r\n+                EdgeInsets.only(top: 70.h, left: 25, bottom: 25, right: 25),\r\n             child: Column(\r\n               mainAxisAlignment: MainAxisAlignment.center,\r\n               crossAxisAlignment: CrossAxisAlignment.center,\r\n               children: <Widget>[\r\n"
                },
                {
                    "date": 1650620044674,
                    "content": "Index: \n===================================================================\n--- \n+++ \n@@ -47,9 +47,9 @@\n         },\r\n         child: SingleChildScrollView(\r\n           child: Padding(\r\n             padding:\r\n-                EdgeInsets.only(top: 70.h, left: 25, bottom: 25, right: 25),\r\n+                EdgeInsets.only(top: 50.h, left: 25, bottom: 25, right: 25),\r\n             child: Column(\r\n               mainAxisAlignment: MainAxisAlignment.center,\r\n               crossAxisAlignment: CrossAxisAlignment.center,\r\n               children: <Widget>[\r\n"
                },
                {
                    "date": 1650620057110,
                    "content": "Index: \n===================================================================\n--- \n+++ \n@@ -46,10 +46,9 @@\n           }\r\n         },\r\n         child: SingleChildScrollView(\r\n           child: Padding(\r\n-            padding:\r\n-                EdgeInsets.only(top: 50.h, left: 25, bottom: 25, right: 25),\r\n+            padding: EdgeInsets.only(top: 50.h, left: 25, bottom: 0, right: 25),\r\n             child: Column(\r\n               mainAxisAlignment: MainAxisAlignment.center,\r\n               crossAxisAlignment: CrossAxisAlignment.center,\r\n               children: <Widget>[\r\n"
                },
                {
                    "date": 1650620078523,
                    "content": "Index: \n===================================================================\n--- \n+++ \n@@ -84,9 +84,9 @@\n                   onPressed: handleSignUp,\r\n                   height: 100.r,\r\n                 ),\r\n                 SizedBox(\r\n-                  height: 20.h,\r\n+                  height: 10.h,\r\n                 ),\r\n                 _login(),\r\n               ],\r\n             ),\r\n@@ -155,17 +155,8 @@\n       alignment: Alignment.center,\r\n       child: TextButton(\r\n         onPressed: () {\r\n           Navigator.pop(context);\r\n-          // Navigator.push(\r\n-          //   context,\r\n-          //   MaterialPageRoute(\r\n-          //     builder: (_) => BlocProvider(\r\n-          //       create: (context) => AuthBlocCubit(),\r\n-          //       child: LoginPage(),\r\n-          //     ),\r\n-          //   ),\r\n-          // );\r\n         },\r\n         child: RichText(\r\n           text: TextSpan(\r\n               text: 'Sudah punya akun? ',\r\n"
                },
                {
                    "date": 1650620145858,
                    "content": "Index: \n===================================================================\n--- \n+++ \n@@ -171,14 +171,16 @@\n     );\r\n   }\r\n \r\n   void handleSignUp() async {\r\n+    final _username = _usernameController.value;\r\n     final _email = _emailController.value;\r\n     final _password = _passwordController.value;\r\n     if (formKey.currentState?.validate() == true &&\r\n         _email.isNotEmpty &&\r\n         _password.isNotEmpty) {\r\n       User user = User(\r\n+        userName: _username,\r\n         email: _email,\r\n         password: _password,\r\n       );\r\n \r\n"
                },
                {
                    "date": 1650620206392,
                    "content": "Index: \n===================================================================\n--- \n+++ \n@@ -51,26 +51,8 @@\n             child: Column(\r\n               mainAxisAlignment: MainAxisAlignment.center,\r\n               crossAxisAlignment: CrossAxisAlignment.center,\r\n               children: <Widget>[\r\n-                // Text(\r\n-                //   'Selamat Datang',\r\n-                //   style: TextStyle(\r\n-                //     fontSize: 24,\r\n-                //     fontWeight: FontWeight.bold,\r\n-                //     // color: colorBlue,\r\n-                //   ),\r\n-                // ),\r\n-                // Text(\r\n-                //   'Silahkan daftar terlebih dahulu',\r\n-                //   style: TextStyle(\r\n-                //     fontSize: 15,\r\n-                //     fontWeight: FontWeight.w400,\r\n-                //   ),\r\n-                // ),\r\n-                // SizedBox(\r\n-                //   height: 20,\r\n-                // ),\r\n                 Image.network(\r\n                     'https://img.freepik.com/free-vector/sign-up-concept-illustration_114360-7865.jpg'),\r\n                 SizedBox(\r\n                   height: 9,\r\n"
                },
                {
                    "date": 1650620313089,
                    "content": "Index: \n===================================================================\n--- \n+++ \n@@ -32,19 +32,19 @@\n   Widget build(BuildContext context) {\r\n     return Scaffold(\r\n       body: BlocListener<AuthBlocCubit, AuthBlocState>(\r\n         listener: (context, state) {\r\n-          if (state is AuthBlocLoggedInState) {\r\n-            Navigator.pushReplacement(\r\n-              context,\r\n-              MaterialPageRoute(\r\n-                builder: (_) => BlocProvider(\r\n-                  create: (context) => HomeBlocCubit()..fetchingData(),\r\n-                  child: HomeBlocScreen(),\r\n-                ),\r\n-              ),\r\n-            );\r\n-          }\r\n+          // if (state is AuthBlocLoggedInState) {\r\n+          //   Navigator.pushReplacement(\r\n+          //     context,\r\n+          //     MaterialPageRoute(\r\n+          //       builder: (_) => BlocProvider(\r\n+          //         create: (context) => HomeBlocCubit()..fetchingData(),\r\n+          //         child: HomeBlocScreen(),\r\n+          //       ),\r\n+          //     ),\r\n+          //   );\r\n+          // }\r\n         },\r\n         child: SingleChildScrollView(\r\n           child: Padding(\r\n             padding: EdgeInsets.only(top: 50.h, left: 25, bottom: 0, right: 25),\r\n"
                },
                {
                    "date": 1650620446375,
                    "content": "Index: \n===================================================================\n--- \n+++ \n@@ -32,8 +32,9 @@\n   Widget build(BuildContext context) {\r\n     return Scaffold(\r\n       body: BlocListener<AuthBlocCubit, AuthBlocState>(\r\n         listener: (context, state) {\r\n+          Navigator.pop(context);\r\n           // if (state is AuthBlocLoggedInState) {\r\n           //   Navigator.pushReplacement(\r\n           //     context,\r\n           //     MaterialPageRoute(\r\n"
                },
                {
                    "date": 1650620538007,
                    "content": "Index: \n===================================================================\n--- \n+++ \n@@ -32,9 +32,8 @@\n   Widget build(BuildContext context) {\r\n     return Scaffold(\r\n       body: BlocListener<AuthBlocCubit, AuthBlocState>(\r\n         listener: (context, state) {\r\n-          Navigator.pop(context);\r\n           // if (state is AuthBlocLoggedInState) {\r\n           //   Navigator.pushReplacement(\r\n           //     context,\r\n           //     MaterialPageRoute(\r\n"
                },
                {
                    "date": 1650620626127,
                    "content": "Index: \n===================================================================\n--- \n+++ \n@@ -32,19 +32,21 @@\n   Widget build(BuildContext context) {\r\n     return Scaffold(\r\n       body: BlocListener<AuthBlocCubit, AuthBlocState>(\r\n         listener: (context, state) {\r\n-          // if (state is AuthBlocLoggedInState) {\r\n-          //   Navigator.pushReplacement(\r\n-          //     context,\r\n-          //     MaterialPageRoute(\r\n-          //       builder: (_) => BlocProvider(\r\n-          //         create: (context) => HomeBlocCubit()..fetchingData(),\r\n-          //         child: HomeBlocScreen(),\r\n-          //       ),\r\n-          //     ),\r\n-          //   );\r\n-          // }\r\n+          if (state is AuthBlocLoggedInState) {\r\n+            ScaffoldMessenger.of(context)\r\n+                .showSnackBar(SnackBar(content: Text('berhasil')));\r\n+            // Navigator.pushReplacement(\r\n+            //   context,\r\n+            //   MaterialPageRoute(\r\n+            //     builder: (_) => BlocProvider(\r\n+            //       create: (context) => HomeBlocCubit()..fetchingData(),\r\n+            //       child: HomeBlocScreen(),\r\n+            //     ),\r\n+            //   ),\r\n+            // );\r\n+          }\r\n         },\r\n         child: SingleChildScrollView(\r\n           child: Padding(\r\n             padding: EdgeInsets.only(top: 50.h, left: 25, bottom: 0, right: 25),\r\n"
                },
                {
                    "date": 1650620761536,
                    "content": "Index: \n===================================================================\n--- \n+++ \n@@ -35,17 +35,8 @@\n         listener: (context, state) {\r\n           if (state is AuthBlocLoggedInState) {\r\n             ScaffoldMessenger.of(context)\r\n                 .showSnackBar(SnackBar(content: Text('berhasil')));\r\n-            // Navigator.pushReplacement(\r\n-            //   context,\r\n-            //   MaterialPageRoute(\r\n-            //     builder: (_) => BlocProvider(\r\n-            //       create: (context) => HomeBlocCubit()..fetchingData(),\r\n-            //       child: HomeBlocScreen(),\r\n-            //     ),\r\n-            //   ),\r\n-            // );\r\n           }\r\n         },\r\n         child: SingleChildScrollView(\r\n           child: Padding(\r\n"
                },
                {
                    "date": 1650621418394,
                    "content": "Index: \n===================================================================\n--- \n+++ \n@@ -1,14 +1,11 @@\n import 'package:flutter/material.dart';\r\n import 'package:flutter_bloc/flutter_bloc.dart';\r\n import 'package:flutter_screenutil/flutter_screenutil.dart';\r\n import 'package:majootestcase/bloc/auth_bloc/auth_bloc_cubit.dart';\r\n-import 'package:majootestcase/bloc/home_bloc/home_bloc_cubit.dart';\r\n import 'package:majootestcase/common/widget/custom_button.dart';\r\n import 'package:majootestcase/common/widget/text_form_field.dart';\r\n import 'package:majootestcase/models/user.dart';\r\n-import 'package:majootestcase/ui/home_bloc/home_bloc_screen.dart';\r\n-import 'package:majootestcase/ui/login/login_page.dart';\r\n \r\n class SignUpPage extends StatefulWidget {\r\n   @override\r\n   _LogoutState createState() => _LogoutState();\r\n"
                },
                {
                    "date": 1650621797601,
                    "content": "Index: \n===================================================================\n--- \n+++ \n@@ -31,9 +31,9 @@\n       body: BlocListener<AuthBlocCubit, AuthBlocState>(\r\n         listener: (context, state) {\r\n           if (state is AuthBlocLoggedInState) {\r\n             ScaffoldMessenger.of(context)\r\n-                .showSnackBar(SnackBar(content: Text('berhasil')));\r\n+                .showSnackBar(SnackBar(content: Text('Pendaftaran Berhasil')));\r\n           }\r\n         },\r\n         child: SingleChildScrollView(\r\n           child: Padding(\r\n"
                },
                {
                    "date": 1650621842127,
                    "content": "Index: \n===================================================================\n--- \n+++ \n@@ -154,9 +154,9 @@\n         userName: _username,\r\n         email: _email,\r\n         password: _password,\r\n       );\r\n-\r\n+      Navigator.pop(context);\r\n       BlocProvider.of<AuthBlocCubit>(context).signUpUser(user);\r\n     }\r\n   }\r\n }\r\n"
                },
                {
                    "date": 1650621852281,
                    "content": "Index: \n===================================================================\n--- \n+++ \n@@ -154,9 +154,9 @@\n         userName: _username,\r\n         email: _email,\r\n         password: _password,\r\n       );\r\n-      Navigator.pop(context);\r\n+\r\n       BlocProvider.of<AuthBlocCubit>(context).signUpUser(user);\r\n     }\r\n   }\r\n }\r\n"
                },
                {
                    "date": 1650621915753,
                    "content": "Index: \n===================================================================\n--- \n+++ \n@@ -1,10 +1,12 @@\n import 'package:flutter/material.dart';\r\n import 'package:flutter_bloc/flutter_bloc.dart';\r\n import 'package:flutter_screenutil/flutter_screenutil.dart';\r\n import 'package:majootestcase/bloc/auth_bloc/auth_bloc_cubit.dart';\r\n+import 'package:majootestcase/bloc/home_bloc/home_bloc_cubit.dart';\r\n import 'package:majootestcase/common/widget/custom_button.dart';\r\n import 'package:majootestcase/common/widget/text_form_field.dart';\r\n+import 'package:majootestcase/main.dart';\r\n import 'package:majootestcase/models/user.dart';\r\n \r\n class SignUpPage extends StatefulWidget {\r\n   @override\r\n@@ -33,8 +35,15 @@\n           if (state is AuthBlocLoggedInState) {\r\n             ScaffoldMessenger.of(context)\r\n                 .showSnackBar(SnackBar(content: Text('Pendaftaran Berhasil')));\r\n           }\r\n+          Navigator.pushReplacement(\r\n+              context,\r\n+              MaterialPageRoute(\r\n+                  builder: ((context) => BlocProvider(\r\n+                        create: (context) => HomeBlocCubit()..fetchingData(),\r\n+                        child: MyHomePageScreen(),\r\n+                      ))));\r\n         },\r\n         child: SingleChildScrollView(\r\n           child: Padding(\r\n             padding: EdgeInsets.only(top: 50.h, left: 25, bottom: 0, right: 25),\r\n"
                },
                {
                    "date": 1650621957776,
                    "content": "Index: \n===================================================================\n--- \n+++ \n@@ -35,15 +35,15 @@\n           if (state is AuthBlocLoggedInState) {\r\n             ScaffoldMessenger.of(context)\r\n                 .showSnackBar(SnackBar(content: Text('Pendaftaran Berhasil')));\r\n           }\r\n-          Navigator.pushReplacement(\r\n-              context,\r\n-              MaterialPageRoute(\r\n-                  builder: ((context) => BlocProvider(\r\n-                        create: (context) => HomeBlocCubit()..fetchingData(),\r\n-                        child: MyHomePageScreen(),\r\n-                      ))));\r\n+          // Navigator.pushReplacement(\r\n+          //     context,\r\n+          //     MaterialPageRoute(\r\n+          //         builder: ((context) => BlocProvider(\r\n+          //               create: (context) => HomeBlocCubit()..fetchingData(),\r\n+          //               child: MyHomePageScreen(),\r\n+          //             ))));\r\n         },\r\n         child: SingleChildScrollView(\r\n           child: Padding(\r\n             padding: EdgeInsets.only(top: 50.h, left: 25, bottom: 0, right: 25),\r\n"
                },
                {
                    "date": 1650621966115,
                    "content": "Index: \n===================================================================\n--- \n+++ \n@@ -1,9 +1,8 @@\n import 'package:flutter/material.dart';\r\n import 'package:flutter_bloc/flutter_bloc.dart';\r\n import 'package:flutter_screenutil/flutter_screenutil.dart';\r\n import 'package:majootestcase/bloc/auth_bloc/auth_bloc_cubit.dart';\r\n-import 'package:majootestcase/bloc/home_bloc/home_bloc_cubit.dart';\r\n import 'package:majootestcase/common/widget/custom_button.dart';\r\n import 'package:majootestcase/common/widget/text_form_field.dart';\r\n import 'package:majootestcase/main.dart';\r\n import 'package:majootestcase/models/user.dart';\r\n@@ -35,15 +34,10 @@\n           if (state is AuthBlocLoggedInState) {\r\n             ScaffoldMessenger.of(context)\r\n                 .showSnackBar(SnackBar(content: Text('Pendaftaran Berhasil')));\r\n           }\r\n-          // Navigator.pushReplacement(\r\n-          //     context,\r\n-          //     MaterialPageRoute(\r\n-          //         builder: ((context) => BlocProvider(\r\n-          //               create: (context) => HomeBlocCubit()..fetchingData(),\r\n-          //               child: MyHomePageScreen(),\r\n-          //             ))));\r\n+          Navigator.pushReplacement(context,\r\n+              MaterialPageRoute(builder: ((context) => MyHomePageScreen())));\r\n         },\r\n         child: SingleChildScrollView(\r\n           child: Padding(\r\n             padding: EdgeInsets.only(top: 50.h, left: 25, bottom: 0, right: 25),\r\n"
                },
                {
                    "date": 1650622001639,
                    "content": "Index: \n===================================================================\n--- \n+++ \n@@ -34,10 +34,10 @@\n           if (state is AuthBlocLoggedInState) {\r\n             ScaffoldMessenger.of(context)\r\n                 .showSnackBar(SnackBar(content: Text('Pendaftaran Berhasil')));\r\n           }\r\n-          Navigator.pushReplacement(context,\r\n-              MaterialPageRoute(builder: ((context) => MyHomePageScreen())));\r\n+          // Navigator.pushReplacement(context,\r\n+          //     MaterialPageRoute(builder: ((context) => MyHomePageScreen())));\r\n         },\r\n         child: SingleChildScrollView(\r\n           child: Padding(\r\n             padding: EdgeInsets.only(top: 50.h, left: 25, bottom: 0, right: 25),\r\n"
                },
                {
                    "date": 1650622044311,
                    "content": "Index: \n===================================================================\n--- \n+++ \n@@ -157,9 +157,9 @@\n         userName: _username,\r\n         email: _email,\r\n         password: _password,\r\n       );\r\n-\r\n+      Navigator.pop(context);\r\n       BlocProvider.of<AuthBlocCubit>(context).signUpUser(user);\r\n     }\r\n   }\r\n }\r\n"
                },
                {
                    "date": 1650622109894,
                    "content": "Index: \n===================================================================\n--- \n+++ \n@@ -157,9 +157,8 @@\n         userName: _username,\r\n         email: _email,\r\n         password: _password,\r\n       );\r\n-      Navigator.pop(context);\r\n       BlocProvider.of<AuthBlocCubit>(context).signUpUser(user);\r\n     }\r\n   }\r\n }\r\n"
                },
                {
                    "date": 1650624238855,
                    "content": "Index: \n===================================================================\n--- \n+++ \n@@ -34,10 +34,8 @@\n           if (state is AuthBlocLoggedInState) {\r\n             ScaffoldMessenger.of(context)\r\n                 .showSnackBar(SnackBar(content: Text('Pendaftaran Berhasil')));\r\n           }\r\n-          // Navigator.pushReplacement(context,\r\n-          //     MaterialPageRoute(builder: ((context) => MyHomePageScreen())));\r\n         },\r\n         child: SingleChildScrollView(\r\n           child: Padding(\r\n             padding: EdgeInsets.only(top: 50.h, left: 25, bottom: 0, right: 25),\r\n"
                }
            ],
            "date": 1650618705956,
            "name": "Commit-0",
            "content": "import 'package:flutter/material.dart';\r\nimport 'package:flutter_bloc/flutter_bloc.dart';\r\nimport 'package:majootestcase/bloc/auth_bloc/auth_bloc_cubit.dart';\r\nimport 'package:majootestcase/bloc/home_bloc/home_bloc_cubit.dart';\r\nimport 'package:majootestcase/common/widget/custom_button.dart';\r\nimport 'package:majootestcase/common/widget/text_form_field.dart';\r\nimport 'package:majootestcase/models/user.dart';\r\nimport 'package:majootestcase/ui/home_bloc/home_bloc_screen.dart';\r\n\r\nclass SignUpPage extends StatefulWidget {\r\n  @override\r\n  _LogoutState createState() => _LogoutState();\r\n}\r\n\r\nclass _LogoutState extends State<SignUpPage> {\r\n  final _emailController = TextController(initialValue: '');\r\n  final _passwordController = TextController(initialValue: '');\r\n  GlobalKey<FormState> formKey = new GlobalKey<FormState>();\r\n\r\n  bool _isObscurePassword = true;\r\n\r\n  @override\r\n  void initState() {\r\n    super.initState();\r\n  }\r\n\r\n  @override\r\n  Widget build(BuildContext context) {\r\n    return Scaffold(\r\n      body: BlocListener<AuthBlocCubit, AuthBlocState>(\r\n        listener: (context, state) {\r\n          if (state is AuthBlocLoggedInState) {\r\n            Navigator.pushReplacement(\r\n              context,\r\n              MaterialPageRoute(\r\n                builder: (_) => BlocProvider(\r\n                  create: (context) => HomeBlocCubit()..fetchingData(),\r\n                  child: HomeBlocScreen(),\r\n                ),\r\n              ),\r\n            );\r\n          }\r\n        },\r\n        child: SingleChildScrollView(\r\n          child: Padding(\r\n            padding: EdgeInsets.only(top: 75, left: 25, bottom: 25, right: 25),\r\n            child: Column(\r\n              mainAxisAlignment: MainAxisAlignment.center,\r\n              crossAxisAlignment: CrossAxisAlignment.start,\r\n              children: <Widget>[\r\n                Text(\r\n                  'Selamat Datang',\r\n                  style: TextStyle(\r\n                    fontSize: 24,\r\n                    fontWeight: FontWeight.bold,\r\n                    // color: colorBlue,\r\n                  ),\r\n                ),\r\n                Text(\r\n                  'Silahkan SignUp terlebih dahulu',\r\n                  style: TextStyle(\r\n                    fontSize: 15,\r\n                    fontWeight: FontWeight.w400,\r\n                  ),\r\n                ),\r\n                SizedBox(\r\n                  height: 9,\r\n                ),\r\n                _form(),\r\n                SizedBox(\r\n                  height: 50,\r\n                ),\r\n                CustomButton(\r\n                  text: 'SignUp',\r\n                  onPressed: handleSignUp,\r\n                  height: 100,\r\n                ),\r\n                SizedBox(\r\n                  height: 50,\r\n                ),\r\n                _register(),\r\n              ],\r\n            ),\r\n          ),\r\n        ),\r\n      ),\r\n    );\r\n  }\r\n\r\n  Widget _form() {\r\n    return Form(\r\n      key: formKey,\r\n      child: Column(\r\n        children: [\r\n          CustomTextFormField(\r\n            context: context,\r\n            controller: _emailController,\r\n            isEmail: true,\r\n            hint: 'Example@123.com',\r\n            label: 'Email',\r\n            validator: (val) {\r\n              final pattern = new RegExp(r'([\\d\\w]{1,}@[\\w\\d]{1,}\\.[\\w]{1,})');\r\n              String? result = '';\r\n              if (val != null)\r\n                result = pattern.hasMatch(val) ? null : 'email is invalid';\r\n              return result;\r\n            },\r\n          ),\r\n          CustomTextFormField(\r\n            context: context,\r\n            label: 'Password',\r\n            hint: 'password',\r\n            controller: _passwordController,\r\n            isObscureText: _isObscurePassword,\r\n            suffixIcon: IconButton(\r\n              icon: Icon(\r\n                _isObscurePassword\r\n                    ? Icons.visibility_off_outlined\r\n                    : Icons.visibility_outlined,\r\n              ),\r\n              onPressed: () {\r\n                setState(() {\r\n                  _isObscurePassword = !_isObscurePassword;\r\n                });\r\n              },\r\n            ),\r\n          ),\r\n        ],\r\n      ),\r\n    );\r\n  }\r\n\r\n  Widget _register() {\r\n    return Align(\r\n      alignment: Alignment.center,\r\n      child: TextButton(\r\n        onPressed: () {\r\n          handleSignUp();\r\n        },\r\n        child: RichText(\r\n          text: TextSpan(\r\n              text: 'Belum punya akun? ',\r\n              style: TextStyle(color: Colors.black45),\r\n              children: [\r\n                TextSpan(\r\n                  text: 'Daftar',\r\n                ),\r\n              ]),\r\n        ),\r\n      ),\r\n    );\r\n  }\r\n\r\n  void handleSignUp() {\r\n    final _email = _emailController.value;\r\n    final _password = _passwordController.value;\r\n    if (formKey.currentState?.validate() == true &&\r\n        _email.isNotEmpty &&\r\n        _password.isNotEmpty) {\r\n      AuthBlocCubit authBlocCubit = AuthBlocCubit();\r\n      User user = User(\r\n        email: _email,\r\n        password: _password,\r\n      );\r\n      BlocProvider.of<AuthBlocCubit>(context).SignUpUser();\r\n    }\r\n  }\r\n\r\n  void handleSignUp() async {\r\n    final _email = _emailController.value;\r\n    final _password = _passwordController.value;\r\n    if (formKey.currentState?.validate() == true &&\r\n        _email.isNotEmpty &&\r\n        _password.isNotEmpty) {\r\n      User user = User(\r\n        email: _email,\r\n        password: _password,\r\n      );\r\n\r\n      BlocProvider.of<AuthBlocCubit>(context).signUpUser(user);\r\n    }\r\n  }\r\n}\r\n"
        }
    ]
}